[{"id":1,"fecha":"8/4/2017","importe":20.63,"latitud":7.8005685,"longitud":-3.1629063},
{"id":2,"fecha":"5/1/2017","importe":18.6,"latitud":16.5235265,"longitud":102.0832543},
{"id":3,"fecha":"9/5/2017","importe":84.56,"latitud":38.299031,"longitud":-8.4830925},
{"id":4,"fecha":"3/17/2017","importe":40.79,"latitud":-18.7643566,"longitud":-51.3429885},
{"id":5,"fecha":"11/21/2017","importe":11.78,"latitud":-6.8348685,"longitud":110.6735079},
{"id":6,"fecha":"8/25/2017","importe":33.23,"latitud":23.7321074,"longitud":-103.9832684},
{"id":7,"fecha":"2/27/2017","importe":86.14,"latitud":15.461001,"longitud":120.465946},
{"id":8,"fecha":"8/30/2017","importe":5.54,"latitud":-32.968211,"longitud":-60.6752261},
{"id":9,"fecha":"7/12/2017","importe":34.28,"latitud":31.298974,"longitud":120.585289},
{"id":10,"fecha":"12/6/2017","importe":11.4,"latitud":15.6600225,"longitud":-13.2576906},
{"id":11,"fecha":"8/19/2017","importe":36.48,"latitud":23.084122,"longitud":114.382541},
{"id":12,"fecha":"5/12/2017","importe":73.58,"latitud":-7.3038456,"longitud":108.2185534},
{"id":13,"fecha":"6/24/2017","importe":45.09,"latitud":49.6321945,"longitud":16.7112603},
{"id":14,"fecha":"8/1/2017","importe":69.06,"latitud":10.9556419,"longitud":-72.795543},
{"id":15,"fecha":"3/19/2017","importe":15.84,"latitud":48.34016,"longitud":123.337533},
{"id":16,"fecha":"4/26/2017","importe":33.65,"latitud":14.7833743,"longitud":-90.4537748},
{"id":17,"fecha":"5/15/2017","importe":31.88,"latitud":57.7842303,"longitud":60.0577694},
{"id":18,"fecha":"8/9/2017","importe":84.41,"latitud":-14.0893344,"longitud":-72.3355683},
{"id":19,"fecha":"7/8/2017","importe":39.76,"latitud":17.5385975,"longitud":120.6662294},
{"id":20,"fecha":"1/27/2017","importe":38.63,"latitud":22.928305,"longitud":113.207187},
{"id":21,"fecha":"6/19/2017","importe":23.92,"latitud":60.502878,"longitud":43.5649824},
{"id":22,"fecha":"6/5/2017","importe":60.01,"latitud":57.68356,"longitud":11.8861644},
{"id":23,"fecha":"2/8/2017","importe":44.55,"latitud":38.042805,"longitud":114.514893},
{"id":24,"fecha":"9/22/2017","importe":47.99,"latitud":39.4551146,"longitud":-8.4715169},
{"id":25,"fecha":"6/14/2017","importe":5.26,"latitud":22.052089,"longitud":-98.2007943},
{"id":26,"fecha":"2/12/2017","importe":90.01,"latitud":10.9155965,"longitud":106.7692013},
{"id":27,"fecha":"5/30/2017","importe":73.58,"latitud":31.947633,"longitud":108.664214},
{"id":28,"fecha":"5/29/2017","importe":36.89,"latitud":13.9441866,"longitud":121.6308947},
{"id":29,"fecha":"4/1/2017","importe":54.69,"latitud":-19.8852788,"longitud":-43.6644238},
{"id":30,"fecha":"6/12/2017","importe":29.61,"latitud":27.013081,"longitud":106.452907},
{"id":31,"fecha":"7/11/2017","importe":15.71,"latitud":"35.90556","longitud":"14.47611"},
{"id":32,"fecha":"9/4/2017","importe":58.3,"latitud":45.5973849,"longitud":5.8745347},
{"id":33,"fecha":"5/14/2017","importe":47.52,"latitud":18.932625,"longitud":-70.4079274},
{"id":34,"fecha":"11/3/2017","importe":98.67,"latitud":35.015101,"longitud":110.998272},
{"id":35,"fecha":"3/23/2017","importe":53.75,"latitud":-29.6731137,"longitud":29.9590375},
{"id":36,"fecha":"5/21/2017","importe":56.6,"latitud":-8.4929791,"longitud":119.0110762},
{"id":37,"fecha":"9/10/2017","importe":81.09,"latitud":50.4145342,"longitud":23.2170296},
{"id":38,"fecha":"5/18/2017","importe":89.02,"latitud":15.5973118,"longitud":-87.2145498},
{"id":39,"fecha":"2/2/2017","importe":11.49,"latitud":32.060255,"longitud":118.796877},
{"id":40,"fecha":"5/20/2017","importe":16.34,"latitud":15.3228767,"longitud":38.9250517},
{"id":41,"fecha":"11/7/2017","importe":22.71,"latitud":-7.4703872,"longitud":110.9387418},
{"id":42,"fecha":"8/24/2017","importe":2.9,"latitud":13.7768017,"longitud":100.5593109},
{"id":43,"fecha":"10/10/2017","importe":25.67,"latitud":16.0847081,"longitud":120.3954753},
{"id":44,"fecha":"10/23/2017","importe":28.72,"latitud":-8.5997534,"longitud":120.3867834},
{"id":45,"fecha":"5/10/2017","importe":88.56,"latitud":7.7526495,"longitud":-74.9442585},
{"id":46,"fecha":"6/25/2017","importe":81.69,"latitud":39.618462,"longitud":113.536462},
{"id":47,"fecha":"6/30/2017","importe":43.67,"latitud":-6.7992297,"longitud":106.7620174},
{"id":48,"fecha":"7/16/2017","importe":7.68,"latitud":35.0354386,"longitud":9.4839392},
{"id":49,"fecha":"4/18/2017","importe":45.2,"latitud":35.744798,"longitud":96.4077358},
{"id":50,"fecha":"12/11/2017","importe":68.02,"latitud":3.1035814,"longitud":101.640078},
{"id":51,"fecha":"6/15/2017","importe":76.63,"latitud":51.1665287,"longitud":26.7693629},
{"id":52,"fecha":"8/7/2017","importe":53.25,"latitud":-19.0195852,"longitud":-65.2619615},
{"id":53,"fecha":"4/8/2017","importe":24.5,"latitud":42.616208,"longitud":141.5321435},
{"id":54,"fecha":"5/19/2017","importe":77.11,"latitud":12.6679167,"longitud":123.9881642},
{"id":55,"fecha":"8/27/2017","importe":12.45,"latitud":23.113478,"longitud":113.417068},
{"id":56,"fecha":"8/11/2017","importe":29.08,"latitud":44.0519136,"longitud":42.8429639},
{"id":57,"fecha":"4/27/2017","importe":24.69,"latitud":32.2299999,"longitud":-86.19},
{"id":58,"fecha":"12/10/2017","importe":44.18,"latitud":-12.9698503,"longitud":-39.2617368},
{"id":59,"fecha":"5/22/2017","importe":91.97,"latitud":-18.0549287,"longitud":-63.4286929},
{"id":60,"fecha":"9/8/2017","importe":60.92,"latitud":36.599744,"longitud":101.803717},
{"id":61,"fecha":"3/13/2017","importe":44.99,"latitud":52.1028471,"longitud":21.0281495},
{"id":62,"fecha":"11/4/2017","importe":3.81,"latitud":3.5981582,"longitud":98.6824005},
{"id":63,"fecha":"8/9/2017","importe":4.19,"latitud":40.2507786,"longitud":44.419895},
{"id":64,"fecha":"4/11/2017","importe":70.25,"latitud":35.2853171,"longitud":139.854819},
{"id":65,"fecha":"2/22/2017","importe":36.36,"latitud":29.299853,"longitud":108.777742},
{"id":66,"fecha":"12/21/2017","importe":61.24,"latitud":40.324768,"longitud":97.521763},
{"id":67,"fecha":"4/3/2017","importe":64.94,"latitud":-11.4077673,"longitud":-69.4887886},
{"id":68,"fecha":"6/17/2017","importe":53.5,"latitud":40.231962,"longitud":116.857837},
{"id":69,"fecha":"9/1/2017","importe":50.04,"latitud":14.2042871,"longitud":121.0829852},
{"id":70,"fecha":"11/27/2017","importe":63.84,"latitud":32.118776,"longitud":115.634159},
{"id":71,"fecha":"10/4/2017","importe":53.64,"latitud":32.905305,"longitud":101.755566},
{"id":72,"fecha":"8/27/2017","importe":71.5,"latitud":20.3231704,"longitud":106.0140586},
{"id":73,"fecha":"7/22/2017","importe":57.65,"latitud":-7.116667,"longitud":111.716667},
{"id":74,"fecha":"4/5/2017","importe":19.12,"latitud":-6.1874721,"longitud":106.8274787},
{"id":75,"fecha":"12/3/2017","importe":84.5,"latitud":"-6.13333","longitud":"39.28333"},
{"id":76,"fecha":"6/23/2017","importe":72.57,"latitud":45.0247038,"longitud":14.6312922},
{"id":77,"fecha":"4/19/2017","importe":19.51,"latitud":7.0887275,"longitud":125.6197949},
{"id":78,"fecha":"12/7/2017","importe":24.79,"latitud":52.9480781,"longitud":-7.0472382},
{"id":79,"fecha":"9/17/2017","importe":77.6,"latitud":30.699439,"longitud":115.078981},
{"id":80,"fecha":"3/8/2017","importe":57.3,"latitud":53.3249623,"longitud":34.374358},
{"id":81,"fecha":"4/28/2017","importe":32.32,"latitud":7.160227,"longitud":125.05806},
{"id":82,"fecha":"6/15/2017","importe":60.88,"latitud":-34.7796334,"longitud":-58.6040349},
{"id":83,"fecha":"9/29/2017","importe":11.18,"latitud":-3.9879753,"longitud":-79.3535714},
{"id":84,"fecha":"5/12/2017","importe":6.86,"latitud":-8.7318869,"longitud":121.7423434},
{"id":85,"fecha":"3/23/2017","importe":61.59,"latitud":3.01228,"longitud":-76.484533},
{"id":86,"fecha":"1/18/2017","importe":20.34,"latitud":"52.36389","longitud":"30.39472"},
{"id":87,"fecha":"5/27/2017","importe":30.63,"latitud":14.5665378,"longitud":121.1092186},
{"id":88,"fecha":"11/6/2017","importe":73.0,"latitud":33.612843,"longitud":113.667436},
{"id":89,"fecha":"7/14/2017","importe":39.79,"latitud":"-7.051","longitud":"112.4232"},
{"id":90,"fecha":"5/2/2017","importe":15.83,"latitud":40.5317434,"longitud":44.7159759},
{"id":91,"fecha":"10/11/2017","importe":31.63,"latitud":39.7291573,"longitud":47.6541468},
{"id":92,"fecha":"4/3/2017","importe":90.97,"latitud":60.145521,"longitud":16.17123},
{"id":93,"fecha":"3/6/2017","importe":49.6,"latitud":15.4844645,"longitud":-84.3568338},
{"id":94,"fecha":"7/30/2017","importe":39.1,"latitud":22.000143,"longitud":100.771678},
{"id":95,"fecha":"4/3/2017","importe":87.89,"latitud":56.2621893,"longitud":34.3028279},
{"id":96,"fecha":"8/16/2017","importe":40.81,"latitud":9.939624,"longitud":126.065213},
{"id":97,"fecha":"8/23/2017","importe":16.61,"latitud":-34.7264519,"longitud":-58.6055652},
{"id":98,"fecha":"11/1/2017","importe":16.44,"latitud":35.000262,"longitud":102.910493},
{"id":99,"fecha":"7/27/2017","importe":64.71,"latitud":47.594843,"longitud":1.3155028},
{"id":100,"fecha":"3/18/2017","importe":5.55,"latitud":45.5824038,"longitud":19.0552361},
{"id":101,"fecha":"5/1/2017","importe":12.72,"latitud":32.31651,"longitud":-95.2514685},
{"id":102,"fecha":"2/6/2017","importe":68.75,"latitud":26.082105,"longitud":119.328515},
{"id":103,"fecha":"5/23/2017","importe":44.8,"latitud":35.8939566,"longitud":117.9249002},
{"id":104,"fecha":"5/1/2017","importe":55.81,"latitud":33.86,"longitud":115.484454},
{"id":105,"fecha":"1/11/2017","importe":92.2,"latitud":45.7123346,"longitud":15.8074521},
{"id":106,"fecha":"5/30/2017","importe":74.34,"latitud":22.517585,"longitud":113.39277},
{"id":107,"fecha":"7/19/2017","importe":83.83,"latitud":31.3291027,"longitud":31.7132981},
{"id":108,"fecha":"6/30/2017","importe":48.41,"latitud":41.6559343,"longitud":-8.7598916},
{"id":109,"fecha":"11/29/2017","importe":6.24,"latitud":33.6289952,"longitud":-112.1370601},
{"id":110,"fecha":"10/22/2017","importe":53.2,"latitud":53.1106929,"longitud":20.3964722},
{"id":111,"fecha":"2/1/2017","importe":22.85,"latitud":53.1905954,"longitud":107.3306835},
{"id":112,"fecha":"2/22/2017","importe":52.27,"latitud":12.0560975,"longitud":-61.7487996},
{"id":113,"fecha":"6/25/2017","importe":13.82,"latitud":56.6495031,"longitud":12.7902265},
{"id":114,"fecha":"11/12/2017","importe":15.99,"latitud":47.5202786,"longitud":17.5142121},
{"id":115,"fecha":"3/21/2017","importe":85.67,"latitud":46.1223915,"longitud":-74.5838514},
{"id":116,"fecha":"5/12/2017","importe":97.25,"latitud":22.7100789,"longitud":113.8547735},
{"id":117,"fecha":"12/3/2017","importe":84.67,"latitud":-20.4363727,"longitud":-51.3050851},
{"id":118,"fecha":"8/28/2017","importe":99.81,"latitud":41.01,"longitud":-85.06},
{"id":119,"fecha":"3/22/2017","importe":58.63,"latitud":5.329576,"longitud":103.1369108},
{"id":120,"fecha":"7/2/2017","importe":63.87,"latitud":-1.079239,"longitud":102.969002},
{"id":121,"fecha":"5/15/2017","importe":78.28,"latitud":13.1424635,"longitud":123.7244858},
{"id":122,"fecha":"12/11/2017","importe":91.14,"latitud":44.596795,"longitud":20.1242053},
{"id":123,"fecha":"6/12/2017","importe":75.61,"latitud":9.623809,"longitud":123.821694},
{"id":124,"fecha":"12/14/2017","importe":47.87,"latitud":65.0588742,"longitud":25.4549855},
{"id":125,"fecha":"12/6/2017","importe":48.72,"latitud":9.2524087,"longitud":122.874409},
{"id":126,"fecha":"11/5/2017","importe":39.29,"latitud":34.107815,"longitud":108.602317},
{"id":127,"fecha":"11/3/2017","importe":91.74,"latitud":48.8164264,"longitud":17.0510711},
{"id":128,"fecha":"3/27/2017","importe":34.69,"latitud":7.3275252,"longitud":122.8946032},
{"id":129,"fecha":"11/16/2017","importe":62.62,"latitud":-5.5850343,"longitud":-39.3708321},
{"id":130,"fecha":"1/4/2018","importe":47.39,"latitud":35.863652,"longitud":71.789345},
{"id":131,"fecha":"9/19/2017","importe":96.16,"latitud":38.9426594,"longitud":-9.3964878},
{"id":132,"fecha":"2/16/2017","importe":50.08,"latitud":6.2820276,"longitud":10.2852532},
{"id":133,"fecha":"2/15/2017","importe":71.4,"latitud":-7.0976672,"longitud":109.0215438},
{"id":134,"fecha":"1/31/2017","importe":31.02,"latitud":28.705864,"longitud":109.276796},
{"id":135,"fecha":"3/17/2017","importe":31.83,"latitud":41.3666,"longitud":-8.1991612},
{"id":136,"fecha":"4/14/2017","importe":51.37,"latitud":6.9433577,"longitud":-70.7168469},
{"id":137,"fecha":"6/13/2017","importe":30.6,"latitud":12.0675239,"longitud":123.7223625},
{"id":138,"fecha":"9/16/2017","importe":20.9,"latitud":10.584981,"longitud":-62.3037176},
{"id":139,"fecha":"12/7/2017","importe":69.04,"latitud":"50.72372","longitud":"-121.28207"},
{"id":140,"fecha":"2/28/2017","importe":75.78,"latitud":"52.0668","longitud":"-108.00135"},
{"id":141,"fecha":"4/5/2017","importe":42.2,"latitud":-7.6746075,"longitud":112.9475835},
{"id":142,"fecha":"9/6/2017","importe":91.68,"latitud":-26.0880026,"longitud":28.1444516},
{"id":143,"fecha":"12/23/2017","importe":96.52,"latitud":57.6455018,"longitud":11.9253004},
{"id":144,"fecha":"7/31/2017","importe":17.73,"latitud":"-8.9117","longitud":"117.684"},
{"id":145,"fecha":"3/14/2017","importe":28.88,"latitud":28.7163066,"longitud":112.007869},
{"id":146,"fecha":"6/13/2017","importe":46.06,"latitud":11.4864025,"longitud":-69.3503307},
{"id":147,"fecha":"1/28/2017","importe":17.12,"latitud":49.1571976,"longitud":-123.1152602},
{"id":148,"fecha":"3/29/2017","importe":35.63,"latitud":-8.3698126,"longitud":118.2702036},
{"id":149,"fecha":"2/18/2017","importe":52.28,"latitud":-13.7720906,"longitud":-172.3899338},
{"id":150,"fecha":"7/26/2017","importe":15.57,"latitud":41.0872247,"longitud":-8.1084595},
{"id":151,"fecha":"5/23/2017","importe":38.16,"latitud":21.955472,"longitud":111.244529},
{"id":152,"fecha":"5/31/2017","importe":72.39,"latitud":-7.3118486,"longitud":108.6383454},
{"id":153,"fecha":"10/3/2017","importe":48.02,"latitud":50.9093945,"longitud":7.0486698},
{"id":154,"fecha":"10/2/2017","importe":68.17,"latitud":34.433333,"longitud":69.666667},
{"id":155,"fecha":"4/28/2017","importe":77.91,"latitud":29.434465,"longitud":110.345643},
{"id":156,"fecha":"7/17/2017","importe":45.02,"latitud":66.2745295,"longitud":33.0615453},
{"id":157,"fecha":"12/18/2017","importe":44.96,"latitud":28.22335,"longitud":115.062214},
{"id":158,"fecha":"10/17/2017","importe":8.28,"latitud":"48","longitud":"113.93333"},
{"id":159,"fecha":"12/14/2017","importe":82.23,"latitud":"-8.0896","longitud":"112.2944"},
{"id":160,"fecha":"8/28/2017","importe":91.34,"latitud":41.8214682,"longitud":-7.4930317},
{"id":161,"fecha":"6/2/2017","importe":23.03,"latitud":10.4911049,"longitud":-74.794526},
{"id":162,"fecha":"1/30/2017","importe":41.34,"latitud":14.91441,"longitud":120.894496},
{"id":163,"fecha":"9/23/2017","importe":96.64,"latitud":47.2014677,"longitud":-1.5411258},
{"id":164,"fecha":"8/23/2017","importe":55.66,"latitud":52.3376849,"longitud":5.6072982},
{"id":165,"fecha":"12/30/2017","importe":29.77,"latitud":20.1566488,"longitud":-76.947022},
{"id":166,"fecha":"9/8/2017","importe":40.74,"latitud":48.8096645,"longitud":9.2415192},
{"id":167,"fecha":"2/3/2017","importe":46.06,"latitud":38.7683879,"longitud":139.9177739},
{"id":168,"fecha":"10/1/2017","importe":75.89,"latitud":50.4853152,"longitud":30.4983392},
{"id":169,"fecha":"8/24/2017","importe":85.74,"latitud":49.3305085,"longitud":6.0730865},
{"id":170,"fecha":"8/5/2017","importe":83.35,"latitud":11.8088575,"longitud":-0.5352356},
{"id":171,"fecha":"3/8/2017","importe":38.88,"latitud":-7.4394897,"longitud":109.2251697},
{"id":172,"fecha":"2/4/2017","importe":98.44,"latitud":24.390595,"longitud":114.522393},
{"id":173,"fecha":"11/3/2017","importe":42.75,"latitud":-7.4104934,"longitud":110.3279026},
{"id":174,"fecha":"8/28/2017","importe":78.55,"latitud":43.5648626,"longitud":39.7451425},
{"id":175,"fecha":"4/12/2017","importe":98.24,"latitud":"-7.1332","longitud":"113.53472"},
{"id":176,"fecha":"7/13/2017","importe":99.11,"latitud":36.628305,"longitud":101.765843},
{"id":177,"fecha":"3/16/2017","importe":55.61,"latitud":38.084465,"longitud":115.068277},
{"id":178,"fecha":"4/18/2017","importe":81.47,"latitud":46.2209242,"longitud":14.3353423},
{"id":179,"fecha":"1/31/2017","importe":95.88,"latitud":-23.0939881,"longitud":-45.6964547},
{"id":180,"fecha":"7/5/2017","importe":93.47,"latitud":50.0349276,"longitud":15.4780804},
{"id":181,"fecha":"11/1/2017","importe":3.54,"latitud":20.8965838,"longitud":-105.4093552},
{"id":182,"fecha":"12/2/2017","importe":74.31,"latitud":44.4186959,"longitud":17.0868199},
{"id":183,"fecha":"3/12/2017","importe":49.57,"latitud":-10.082036,"longitud":124.458641},
{"id":184,"fecha":"4/8/2017","importe":94.34,"latitud":38.5328,"longitud":-28.626058},
{"id":185,"fecha":"2/6/2017","importe":26.58,"latitud":52.1513886,"longitud":4.4982869},
{"id":186,"fecha":"6/1/2017","importe":78.7,"latitud":12.4866658,"longitud":108.042083},
{"id":187,"fecha":"1/29/2017","importe":94.85,"latitud":39.979686,"longitud":116.481068},
{"id":188,"fecha":"9/10/2017","importe":66.18,"latitud":39.315813,"longitud":117.666466},
{"id":189,"fecha":"7/20/2017","importe":10.82,"latitud":49.7165109,"longitud":13.0706469},
{"id":190,"fecha":"7/9/2017","importe":12.68,"latitud":53.7721333,"longitud":14.7790457},
{"id":191,"fecha":"12/25/2017","importe":37.72,"latitud":39.793846,"longitud":116.7156302},
{"id":192,"fecha":"1/13/2017","importe":39.46,"latitud":51.1730117,"longitud":7.2822788},
{"id":193,"fecha":"5/29/2017","importe":83.25,"latitud":14.175851,"longitud":-89.861368},
{"id":194,"fecha":"8/3/2017","importe":11.75,"latitud":-7.62385,"longitud":109.23577},
{"id":195,"fecha":"2/1/2017","importe":84.9,"latitud":36.3081761,"longitud":115.7834972},
{"id":196,"fecha":"4/2/2017","importe":74.69,"latitud":52.9480781,"longitud":-7.0472382},
{"id":197,"fecha":"2/18/2017","importe":26.99,"latitud":40.8153071,"longitud":21.39509},
{"id":198,"fecha":"7/25/2017","importe":42.01,"latitud":54.6930453,"longitud":52.5814127},
{"id":199,"fecha":"6/13/2017","importe":33.62,"latitud":12.3109644,"longitud":123.6781612},
{"id":200,"fecha":"3/15/2017","importe":16.55,"latitud":-7.3440911,"longitud":107.9917034},
{"id":201,"fecha":"9/16/2017","importe":60.91,"latitud":30.941593,"longitud":100.311804},
{"id":202,"fecha":"2/21/2017","importe":6.49,"latitud":53.4428794,"longitud":41.8125556},
{"id":203,"fecha":"7/2/2017","importe":37.46,"latitud":"51.56668","longitud":"-101.90093"},
{"id":204,"fecha":"8/22/2017","importe":64.17,"latitud":7.7657031,"longitud":-80.2711588},
{"id":205,"fecha":"3/27/2017","importe":9.89,"latitud":37.533773,"longitud":121.315291},
{"id":206,"fecha":"3/12/2017","importe":78.14,"latitud":-21.2581695,"longitud":-50.6378257},
{"id":207,"fecha":"11/29/2017","importe":99.66,"latitud":57.2287633,"longitud":59.3184961},
{"id":208,"fecha":"10/20/2017","importe":92.75,"latitud":59.3245933,"longitud":17.9509504},
{"id":209,"fecha":"6/18/2017","importe":7.1,"latitud":"31.67361","longitud":"35.25662"},
{"id":210,"fecha":"2/24/2017","importe":71.22,"latitud":-20.5558832,"longitud":-48.5762695},
{"id":211,"fecha":"9/4/2017","importe":14.2,"latitud":41.2404268,"longitud":-8.057813},
{"id":212,"fecha":"2/15/2017","importe":38.12,"latitud":38.067613,"longitud":23.7804059},
{"id":213,"fecha":"7/5/2017","importe":8.34,"latitud":"-8.5514","longitud":"116.5189"},
{"id":214,"fecha":"10/8/2017","importe":44.52,"latitud":6.5490578,"longitud":-7.4976536},
{"id":215,"fecha":"3/7/2017","importe":11.56,"latitud":10.4600937,"longitud":-67.7690497},
{"id":216,"fecha":"7/17/2017","importe":49.02,"latitud":54.8583596,"longitud":44.1463438},
{"id":217,"fecha":"7/1/2017","importe":74.54,"latitud":47.8225694,"longitud":0.3908219},
{"id":218,"fecha":"3/8/2017","importe":41.14,"latitud":-7.3697672,"longitud":112.5125893},
{"id":219,"fecha":"7/20/2017","importe":29.56,"latitud":40.634244,"longitud":108.893327},
{"id":220,"fecha":"6/16/2017","importe":47.48,"latitud":31.686188,"longitud":104.969819},
{"id":221,"fecha":"12/20/2017","importe":46.69,"latitud":15.3091676,"longitud":-61.3793554},
{"id":222,"fecha":"9/13/2017","importe":33.14,"latitud":-1.5117336,"longitud":102.7479899},
{"id":223,"fecha":"9/22/2017","importe":95.52,"latitud":-10.9884148,"longitud":26.7378585},
{"id":224,"fecha":"10/31/2017","importe":70.45,"latitud":50.1919788,"longitud":14.493582},
{"id":225,"fecha":"2/18/2017","importe":59.34,"latitud":50.1559065,"longitud":3.2571934},
{"id":226,"fecha":"7/21/2017","importe":35.33,"latitud":20.2993311,"longitud":106.3581527},
{"id":227,"fecha":"12/13/2017","importe":42.64,"latitud":-7.4,"longitud":107.5},
{"id":228,"fecha":"12/26/2017","importe":78.86,"latitud":-12.23146,"longitud":-75.164368},
{"id":229,"fecha":"11/25/2017","importe":77.02,"latitud":52.1940358,"longitud":104.246923},
{"id":230,"fecha":"4/16/2017","importe":37.67,"latitud":-7.8100327,"longitud":110.3592495},
{"id":231,"fecha":"6/12/2017","importe":48.46,"latitud":41.131691,"longitud":119.7263123},
{"id":232,"fecha":"3/28/2017","importe":73.45,"latitud":38.4480999,"longitud":-7.5655702},
{"id":233,"fecha":"6/27/2017","importe":52.42,"latitud":55.7242814,"longitud":37.1853286},
{"id":234,"fecha":"4/1/2017","importe":23.91,"latitud":"6.53333","longitud":"124.03333"},
{"id":235,"fecha":"8/20/2017","importe":76.9,"latitud":-7.029578,"longitud":108.592328},
{"id":236,"fecha":"1/3/2018","importe":68.26,"latitud":51.378691,"longitud":21.3788326},
{"id":237,"fecha":"3/22/2017","importe":96.35,"latitud":58.3970814,"longitud":15.69159},
{"id":238,"fecha":"5/6/2017","importe":86.43,"latitud":36.3245823,"longitud":138.271632},
{"id":239,"fecha":"11/20/2017","importe":48.74,"latitud":14.413539,"longitud":-90.633471},
{"id":240,"fecha":"11/18/2017","importe":7.14,"latitud":14.7075271,"longitud":121.0259556},
{"id":241,"fecha":"7/7/2017","importe":8.24,"latitud":31.760353,"longitud":93.617125},
{"id":242,"fecha":"5/26/2017","importe":20.14,"latitud":39.5240063,"longitud":-8.5238901},
{"id":243,"fecha":"12/19/2017","importe":94.85,"latitud":42.9282,"longitud":120.570127},
{"id":244,"fecha":"12/12/2017","importe":31.69,"latitud":-4.8768346,"longitud":-80.9732924},
{"id":245,"fecha":"8/2/2017","importe":87.14,"latitud":43,"longitud":-87.97},
{"id":246,"fecha":"6/2/2017","importe":94.9,"latitud":16.6032044,"longitud":95.177098},
{"id":247,"fecha":"5/10/2017","importe":7.62,"latitud":36.5003488,"longitud":36.5999443},
{"id":248,"fecha":"8/15/2017","importe":85.34,"latitud":21.9868109,"longitud":90.295166},
{"id":249,"fecha":"3/13/2017","importe":94.53,"latitud":7.38153,"longitud":-73.919121},
{"id":250,"fecha":"2/16/2017","importe":66.12,"latitud":-26.7416528,"longitud":-52.5852334},
{"id":251,"fecha":"11/19/2017","importe":3.35,"latitud":2.3354966,"longitud":37.9943453},
{"id":252,"fecha":"4/8/2017","importe":27.22,"latitud":-5.5844754,"longitud":105.4771084},
{"id":253,"fecha":"2/3/2017","importe":55.74,"latitud":37.444498,"longitud":114.498761},
{"id":254,"fecha":"8/14/2017","importe":73.13,"latitud":-6.8324793,"longitud":-79.929616},
{"id":255,"fecha":"12/22/2017","importe":1.72,"latitud":37.507694,"longitud":101.414709},
{"id":256,"fecha":"5/5/2017","importe":65.18,"latitud":32.9753084,"longitud":74.0739763},
{"id":257,"fecha":"10/12/2017","importe":61.66,"latitud":50.8426863,"longitud":20.8627188},
{"id":258,"fecha":"9/21/2017","importe":56.66,"latitud":40.221132,"longitud":115.415805},
{"id":259,"fecha":"1/10/2018","importe":71.65,"latitud":7.32688,"longitud":124.297205},
{"id":260,"fecha":"11/30/2017","importe":33.63,"latitud":29.391849,"longitud":118.031547},
{"id":261,"fecha":"10/25/2017","importe":62.6,"latitud":13.3050684,"longitud":-87.8660235},
{"id":262,"fecha":"2/18/2017","importe":93.33,"latitud":43.817071,"longitud":125.323544},
{"id":263,"fecha":"3/12/2017","importe":30.66,"latitud":14.5672317,"longitud":121.0298199},
{"id":264,"fecha":"3/1/2017","importe":18.75,"latitud":43.1283145,"longitud":5.9294606},
{"id":265,"fecha":"1/27/2017","importe":59.6,"latitud":49.5395711,"longitud":18.8708641},
{"id":266,"fecha":"3/23/2017","importe":28.35,"latitud":15.8874377,"longitud":-87.8537478},
{"id":267,"fecha":"5/24/2017","importe":42.4,"latitud":49.9466816,"longitud":18.8244645},
{"id":268,"fecha":"3/6/2017","importe":68.85,"latitud":-5.3383734,"longitud":119.3831026},
{"id":269,"fecha":"8/23/2017","importe":46.09,"latitud":52.1260857,"longitud":19.0103213},
{"id":270,"fecha":"11/14/2017","importe":20.02,"latitud":40.6998888,"longitud":-73.8076421},
{"id":271,"fecha":"6/22/2017","importe":89.02,"latitud":-10.8731945,"longitud":39.4217212},
{"id":272,"fecha":"1/5/2018","importe":85.86,"latitud":35.846212,"longitud":14.486396},
{"id":273,"fecha":"5/20/2017","importe":74.74,"latitud":22.0808448,"longitud":-79.4956974},
{"id":274,"fecha":"10/22/2017","importe":5.34,"latitud":24.134518,"longitud":111.485304},
{"id":275,"fecha":"1/6/2018","importe":56.99,"latitud":13.7032564,"longitud":44.7334536},
{"id":276,"fecha":"11/7/2017","importe":59.22,"latitud":47.3892142,"longitud":0.6942885},
{"id":277,"fecha":"12/19/2017","importe":70.2,"latitud":-6.4024844,"longitud":106.7942405},
{"id":278,"fecha":"11/7/2017","importe":79.55,"latitud":21.9588282,"longitud":96.0891032},
{"id":279,"fecha":"12/12/2017","importe":40.3,"latitud":13.8303,"longitud":121.401},
{"id":280,"fecha":"2/27/2017","importe":96.93,"latitud":10.4825247,"longitud":105.4771084},
{"id":281,"fecha":"11/7/2017","importe":87.94,"latitud":51.6781161,"longitud":79.7893754},
{"id":282,"fecha":"4/29/2017","importe":72.89,"latitud":23.3941709,"longitud":116.7164574},
{"id":283,"fecha":"3/21/2017","importe":98.1,"latitud":-6.6656231,"longitud":106.3438367},
{"id":284,"fecha":"7/16/2017","importe":93.89,"latitud":7.2571325,"longitud":5.2057909},
{"id":285,"fecha":"8/17/2017","importe":10.02,"latitud":37.7794055,"longitud":-122.4494738},
{"id":286,"fecha":"2/24/2017","importe":12.88,"latitud":"42.91679","longitud":"-81.41646"},
{"id":287,"fecha":"2/5/2017","importe":67.18,"latitud":56.949661,"longitud":23.3371119},
{"id":288,"fecha":"10/31/2017","importe":65.25,"latitud":15.2307976,"longitud":-87.9653335},
{"id":289,"fecha":"5/7/2017","importe":75.53,"latitud":45.5080397,"longitud":-73.564543},
{"id":290,"fecha":"8/13/2017","importe":96.61,"latitud":-6.7765974,"longitud":-79.8442978},
{"id":291,"fecha":"8/12/2017","importe":94.58,"latitud":-7.150975,"longitud":110.1402594},
{"id":292,"fecha":"11/30/2017","importe":13.16,"latitud":6.6885285,"longitud":149.3023702},
{"id":293,"fecha":"9/6/2017","importe":51.98,"latitud":43.275207,"longitud":1.9452714},
{"id":294,"fecha":"3/19/2017","importe":88.52,"latitud":57.331693,"longitud":25.6100339},
{"id":295,"fecha":"10/5/2017","importe":50.87,"latitud":-34.6637851,"longitud":-58.5017947},
{"id":296,"fecha":"12/24/2017","importe":38.07,"latitud":-6.176506,"longitud":106.8013241},
{"id":297,"fecha":"9/12/2017","importe":65.87,"latitud":46.4005111,"longitud":-72.2690204},
{"id":298,"fecha":"5/8/2017","importe":28.18,"latitud":13.1916462,"longitud":-59.5800813},
{"id":299,"fecha":"6/8/2017","importe":55.81,"latitud":25.049518,"longitud":116.420098},
{"id":300,"fecha":"1/8/2018","importe":57.84,"latitud":58.629948,"longitud":25.5572383},
{"id":301,"fecha":"8/12/2017","importe":48.72,"latitud":"-9.9104","longitud":"120.4871"},
{"id":302,"fecha":"3/31/2017","importe":40.75,"latitud":59.5194054,"longitud":15.9767049},
{"id":303,"fecha":"10/30/2017","importe":26.51,"latitud":22.9081486,"longitud":-83.1702597},
{"id":304,"fecha":"6/20/2017","importe":65.01,"latitud":"-10.5971","longitud":"121.8889"},
{"id":305,"fecha":"8/15/2017","importe":36.32,"latitud":-8.2104974,"longitud":114.9671388},
{"id":306,"fecha":"7/27/2017","importe":94.3,"latitud":5.9136754,"longitud":125.2653826},
{"id":307,"fecha":"1/15/2017","importe":88.99,"latitud":33.425934,"longitud":66.5344159},
{"id":308,"fecha":"10/16/2017","importe":18.53,"latitud":-25.3461531,"longitud":-57.2705691},
{"id":309,"fecha":"7/27/2017","importe":60.64,"latitud":-6.3710341,"longitud":105.9039005},
{"id":310,"fecha":"6/26/2017","importe":1.65,"latitud":-7.0345626,"longitud":107.9836107},
{"id":311,"fecha":"7/22/2017","importe":90.89,"latitud":14.5326092,"longitud":120.99848},
{"id":312,"fecha":"6/6/2017","importe":40.37,"latitud":40.77,"longitud":-73.53},
{"id":313,"fecha":"12/15/2017","importe":91.05,"latitud":-32.968211,"longitud":-60.6752261},
{"id":314,"fecha":"6/1/2017","importe":39.51,"latitud":9.9356473,"longitud":-84.0792946},
{"id":315,"fecha":"1/20/2017","importe":18.88,"latitud":48.6047256,"longitud":2.430785},
{"id":316,"fecha":"10/6/2017","importe":37.61,"latitud":49.8530897,"longitud":20.9063169},
{"id":317,"fecha":"6/22/2017","importe":25.82,"latitud":39.944315,"longitud":116.809657},
{"id":318,"fecha":"1/19/2017","importe":91.54,"latitud":16.2426241,"longitud":101.9348069},
{"id":319,"fecha":"6/22/2017","importe":8.1,"latitud":13.9619203,"longitud":100.5461093},
{"id":320,"fecha":"11/23/2017","importe":24.27,"latitud":58.4755075,"longitud":13.8583744},
{"id":321,"fecha":"3/12/2017","importe":94.35,"latitud":36.87117,"longitud":121.509453},
{"id":322,"fecha":"4/19/2017","importe":47.59,"latitud":7.4686205,"longitud":125.7662248},
{"id":323,"fecha":"3/13/2017","importe":64.71,"latitud":42.3521585,"longitud":44.6875131},
{"id":324,"fecha":"6/20/2017","importe":95.73,"latitud":10.796589,"longitud":-74.915036},
{"id":325,"fecha":"5/29/2017","importe":2.9,"latitud":41.666028,"longitud":122.1234429},
{"id":326,"fecha":"4/26/2017","importe":67.13,"latitud":62.2500936,"longitud":25.18352},
{"id":327,"fecha":"11/17/2017","importe":48.94,"latitud":30.419045,"longitud":120.299401},
{"id":328,"fecha":"5/24/2017","importe":66.39,"latitud":-21.0794915,"longitud":-45.0933497},
{"id":329,"fecha":"8/3/2017","importe":38.83,"latitud":29.574103,"longitud":106.537605},
{"id":330,"fecha":"7/25/2017","importe":81.29,"latitud":26.641315,"longitud":100.222545},
{"id":331,"fecha":"3/25/2017","importe":56.87,"latitud":-0.1566093,"longitud":35.1983598},
{"id":332,"fecha":"12/2/2017","importe":7.56,"latitud":40.8480415,"longitud":20.6630784},
{"id":333,"fecha":"7/14/2017","importe":98.44,"latitud":27.283955,"longitud":105.291643},
{"id":334,"fecha":"7/10/2017","importe":77.53,"latitud":49.7002226,"longitud":5.9670927},
{"id":335,"fecha":"9/17/2017","importe":80.02,"latitud":39.193073,"longitud":112.865891},
{"id":336,"fecha":"8/11/2017","importe":87.98,"latitud":38.103168,"longitud":114.045809},
{"id":337,"fecha":"7/21/2017","importe":2.01,"latitud":13.0695031,"longitud":-3.0626284},
{"id":338,"fecha":"11/8/2017","importe":74.35,"latitud":53.5180347,"longitud":36.2316564},
{"id":339,"fecha":"8/1/2017","importe":72.45,"latitud":21.4761084,"longitud":106.12575},
{"id":340,"fecha":"1/25/2017","importe":34.36,"latitud":-13.87016,"longitud":-73.667793},
{"id":341,"fecha":"1/13/2017","importe":78.35,"latitud":29.476705,"longitud":121.869339},
{"id":342,"fecha":"5/16/2017","importe":58.24,"latitud":33.20206,"longitud":105.278491},
{"id":343,"fecha":"1/9/2018","importe":31.39,"latitud":56.7870687,"longitud":13.8913772},
{"id":344,"fecha":"6/13/2017","importe":41.11,"latitud":12.1628466,"longitud":6.6745042},
{"id":345,"fecha":"6/9/2017","importe":44.78,"latitud":"35.84917","longitud":"14.50306"},
{"id":346,"fecha":"10/28/2017","importe":65.48,"latitud":43.236229,"longitud":94.324152},
{"id":347,"fecha":"6/3/2017","importe":37.5,"latitud":-27.641736,"longitud":25.5710689},
{"id":348,"fecha":"9/6/2017","importe":77.88,"latitud":11.5742086,"longitud":37.3613533},
{"id":349,"fecha":"9/29/2017","importe":72.71,"latitud":6.7001345,"longitud":7.3246534},
{"id":350,"fecha":"5/14/2017","importe":18.94,"latitud":32.231566,"longitud":35.214616},
{"id":351,"fecha":"4/27/2017","importe":35.56,"latitud":22.5505556,"longitud":114.4913889},
{"id":352,"fecha":"9/11/2017","importe":39.83,"latitud":54.141067,"longitud":25.0156941},
{"id":353,"fecha":"7/29/2017","importe":99.25,"latitud":-4.0447102,"longitud":121.6511258},
{"id":354,"fecha":"11/3/2017","importe":36.8,"latitud":-28.832995,"longitud":-52.5745556},
{"id":355,"fecha":"11/15/2017","importe":38.39,"latitud":47.6451517,"longitud":42.0889476},
{"id":356,"fecha":"10/1/2017","importe":62.23,"latitud":31.982984,"longitud":120.246992},
{"id":357,"fecha":"10/22/2017","importe":84.7,"latitud":55.5305674,"longitud":41.1014277},
{"id":358,"fecha":"7/29/2017","importe":9.07,"latitud":-7.3505808,"longitud":108.2171633},
{"id":359,"fecha":"9/17/2017","importe":90.04,"latitud":"55.9","longitud":"37.55"},
{"id":360,"fecha":"8/11/2017","importe":8.77,"latitud":-6.1604549,"longitud":106.9054618},
{"id":361,"fecha":"4/12/2017","importe":10.67,"latitud":49.7759894,"longitud":13.6924662},
{"id":362,"fecha":"7/4/2017","importe":20.73,"latitud":48.6184003,"longitud":27.8023025},
{"id":363,"fecha":"11/21/2017","importe":81.14,"latitud":45.1689858,"longitud":1.5588851},
{"id":364,"fecha":"5/10/2017","importe":45.37,"latitud":-7.5153339,"longitud":108.7660364},
{"id":365,"fecha":"7/27/2017","importe":25.63,"latitud":-33.0516935,"longitud":-71.3906234},
{"id":366,"fecha":"6/2/2017","importe":35.99,"latitud":38.3691874,"longitud":141.059301},
{"id":367,"fecha":"7/7/2017","importe":83.17,"latitud":52.4530993,"longitud":14.8755999},
{"id":368,"fecha":"5/5/2017","importe":68.53,"latitud":"-8.5774","longitud":"119.0069"},
{"id":369,"fecha":"3/14/2017","importe":28.04,"latitud":59.3650479,"longitud":17.9947004},
{"id":370,"fecha":"5/20/2017","importe":20.99,"latitud":30.6514558,"longitud":104.08491},
{"id":371,"fecha":"12/8/2017","importe":81.73,"latitud":-7.1733576,"longitud":113.5103504},
{"id":372,"fecha":"12/10/2017","importe":34.14,"latitud":15.5251409,"longitud":-89.3343599},
{"id":373,"fecha":"5/26/2017","importe":86.31,"latitud":11.0657173,"longitud":122.8454491},
{"id":374,"fecha":"2/20/2017","importe":73.33,"latitud":-19.7809492,"longitud":-63.1973233},
{"id":375,"fecha":"6/15/2017","importe":22.84,"latitud":22.4583,"longitud":113.034187},
{"id":376,"fecha":"12/21/2017","importe":64.82,"latitud":-6.6,"longitud":-78.016667},
{"id":377,"fecha":"7/24/2017","importe":30.5,"latitud":11.0124684,"longitud":-63.9379244},
{"id":378,"fecha":"10/4/2017","importe":68.38,"latitud":45.1908533,"longitud":-93.3007481},
{"id":379,"fecha":"1/20/2017","importe":36.13,"latitud":9.258006,"longitud":123.281809},
{"id":380,"fecha":"2/4/2017","importe":70.78,"latitud":21.1078535,"longitud":-101.694732},
{"id":381,"fecha":"11/9/2017","importe":87.02,"latitud":10.7119015,"longitud":6.565661},
{"id":382,"fecha":"11/15/2017","importe":86.42,"latitud":39.2471607,"longitud":-9.2641519},
{"id":383,"fecha":"3/15/2017","importe":74.8,"latitud":15.6927248,"longitud":119.9351455},
{"id":384,"fecha":"8/9/2017","importe":89.96,"latitud":44.8099561,"longitud":20.380088},
{"id":385,"fecha":"11/18/2017","importe":24.87,"latitud":29.000347,"longitud":101.507294},
{"id":386,"fecha":"2/21/2017","importe":51.12,"latitud":-6.8747015,"longitud":107.9520129},
{"id":387,"fecha":"1/23/2017","importe":35.24,"latitud":27.417467,"longitud":107.257538},
{"id":388,"fecha":"5/22/2017","importe":11.97,"latitud":45.0169373,"longitud":39.1009227},
{"id":389,"fecha":"4/3/2017","importe":95.62,"latitud":14.7741387,"longitud":99.8571416},
{"id":390,"fecha":"4/2/2017","importe":15.22,"latitud":10.1769828,"longitud":38.1239492},
{"id":391,"fecha":"5/4/2017","importe":84.8,"latitud":59.3500072,"longitud":18.0242499},
{"id":392,"fecha":"3/10/2017","importe":62.2,"latitud":9.9137002,"longitud":124.0939065},
{"id":393,"fecha":"5/7/2017","importe":86.17,"latitud":"35.8875","longitud":"14.51694"},
{"id":394,"fecha":"9/6/2017","importe":77.66,"latitud":15.1805822,"longitud":102.2575235},
{"id":395,"fecha":"2/24/2017","importe":77.14,"latitud":30.315892,"longitud":120.218758},
{"id":396,"fecha":"11/22/2017","importe":34.31,"latitud":36.1638542,"longitud":139.0842383},
{"id":397,"fecha":"7/28/2017","importe":95.12,"latitud":48.8693156,"longitud":2.3501981},
{"id":398,"fecha":"3/20/2017","importe":76.7,"latitud":22.5383534,"longitud":104.2890194},
{"id":399,"fecha":"7/22/2017","importe":74.19,"latitud":19.7605927,"longitud":-99.1476908},
{"id":400,"fecha":"9/18/2017","importe":99.91,"latitud":-7.5450262,"longitud":111.6556388},
{"id":401,"fecha":"11/2/2017","importe":41.23,"latitud":18.178456,"longitud":105.7028457},
{"id":402,"fecha":"3/19/2017","importe":83.31,"latitud":51.6773339,"longitud":5.0633742},
{"id":403,"fecha":"6/25/2017","importe":57.03,"latitud":-26.6536509,"longitud":28.5914696},
{"id":404,"fecha":"3/10/2017","importe":1.51,"latitud":28.578756,"longitud":89.227769},
{"id":405,"fecha":"3/14/2017","importe":61.08,"latitud":"-7.1432","longitud":"114.3603"},
{"id":406,"fecha":"5/21/2017","importe":89.79,"latitud":57.6413494,"longitud":18.546063},
{"id":407,"fecha":"8/22/2017","importe":51.98,"latitud":19.4102526,"longitud":-99.0073673},
{"id":408,"fecha":"2/25/2017","importe":10.82,"latitud":49.2752229,"longitud":1.207968},
{"id":409,"fecha":"7/13/2017","importe":12.8,"latitud":31.4292388,"longitud":31.1252135},
{"id":410,"fecha":"1/14/2017","importe":75.06,"latitud":36.87117,"longitud":121.509453},
{"id":411,"fecha":"7/6/2017","importe":45.81,"latitud":-43.5210758,"longitud":172.6317809},
{"id":412,"fecha":"7/5/2017","importe":20.74,"latitud":60.7990211,"longitud":28.0089189},
{"id":413,"fecha":"12/24/2017","importe":17.11,"latitud":27.088049,"longitud":119.647769},
{"id":414,"fecha":"12/13/2017","importe":91.88,"latitud":60.994897,"longitud":71.8982957},
{"id":415,"fecha":"5/18/2017","importe":35.23,"latitud":-34.9001596,"longitud":-58.0352133},
{"id":416,"fecha":"3/29/2017","importe":28.25,"latitud":50.2496386,"longitud":66.9140468},
{"id":417,"fecha":"8/30/2017","importe":84.84,"latitud":55.4857103,"longitud":60.8751953},
{"id":418,"fecha":"5/21/2017","importe":55.32,"latitud":52.5094874,"longitud":16.7474972},
{"id":419,"fecha":"6/18/2017","importe":43.22,"latitud":36.854929,"longitud":114.503339},
{"id":420,"fecha":"1/5/2018","importe":90.46,"latitud":9.8195998,"longitud":122.5506674},
{"id":421,"fecha":"1/20/2017","importe":18.77,"latitud":29.256382,"longitud":115.100568},
{"id":422,"fecha":"2/2/2017","importe":84.14,"latitud":42.6193237,"longitud":20.5781567},
{"id":423,"fecha":"11/13/2017","importe":30.7,"latitud":7.7442314,"longitud":-7.6168439},
{"id":424,"fecha":"10/20/2017","importe":50.3,"latitud":-7.2017476,"longitud":108.1562084},
{"id":425,"fecha":"12/28/2017","importe":1.99,"latitud":49.7871182,"longitud":18.7242344},
{"id":426,"fecha":"4/8/2017","importe":5.65,"latitud":49.3420066,"longitud":18.2596537},
{"id":427,"fecha":"6/26/2017","importe":25.17,"latitud":"43.35","longitud":"142.38333"},
{"id":428,"fecha":"2/2/2017","importe":86.12,"latitud":2.921263,"longitud":101.6858965},
{"id":429,"fecha":"10/4/2017","importe":27.81,"latitud":41.3119638,"longitud":-8.151597},
{"id":430,"fecha":"11/11/2017","importe":1.27,"latitud":44.5047212,"longitud":38.1300171},
{"id":431,"fecha":"7/6/2017","importe":23.13,"latitud":23.976619,"longitud":47.1557087},
{"id":432,"fecha":"10/13/2017","importe":71.27,"latitud":-22.0028763,"longitud":27.8428651},
{"id":433,"fecha":"7/28/2017","importe":83.62,"latitud":29.423385,"longitud":110.662033},
{"id":434,"fecha":"10/24/2017","importe":53.18,"latitud":43.1342238,"longitud":5.997642},
{"id":435,"fecha":"10/30/2017","importe":23.57,"latitud":48.9014667,"longitud":37.0181437},
{"id":436,"fecha":"3/7/2017","importe":5.27,"latitud":59.8088101,"longitud":17.7010227},
{"id":437,"fecha":"3/14/2017","importe":99.77,"latitud":45.437603,"longitud":121.094913},
{"id":438,"fecha":"5/8/2017","importe":14.59,"latitud":-23.2797384,"longitud":-46.7452277},
{"id":439,"fecha":"6/9/2017","importe":85.58,"latitud":36.7846385,"longitud":138.4565967},
{"id":440,"fecha":"7/24/2017","importe":81.62,"latitud":27.690732,"longitud":111.45269},
{"id":441,"fecha":"9/30/2017","importe":57.27,"latitud":-8.6766175,"longitud":122.1291843},
{"id":442,"fecha":"3/3/2017","importe":13.9,"latitud":58.1522102,"longitud":41.5902169},
{"id":443,"fecha":"5/17/2017","importe":80.37,"latitud":-6.1226719,"longitud":106.8902366},
{"id":444,"fecha":"4/29/2017","importe":93.04,"latitud":-25.6112339,"longitud":-54.5515662},
{"id":445,"fecha":"8/3/2017","importe":44.31,"latitud":42.3416847,"longitud":69.590101},
{"id":446,"fecha":"3/22/2017","importe":71.5,"latitud":57.3423349,"longitud":13.7300442},
{"id":447,"fecha":"5/27/2017","importe":82.91,"latitud":45.697904,"longitud":0.964671},
{"id":448,"fecha":"5/16/2017","importe":2.94,"latitud":-7.5746526,"longitud":108.7690065},
{"id":449,"fecha":"2/14/2017","importe":83.1,"latitud":-7.9553448,"longitud":112.649662},
{"id":450,"fecha":"8/6/2017","importe":6.87,"latitud":3.7334765,"longitud":96.7999931},
{"id":451,"fecha":"5/9/2017","importe":99.96,"latitud":39.3395415,"longitud":21.8407341},
{"id":452,"fecha":"1/24/2017","importe":30.04,"latitud":-8.5693726,"longitud":118.6557911},
{"id":453,"fecha":"12/17/2017","importe":37.0,"latitud":"50.65009","longitud":"-104.86783"},
{"id":454,"fecha":"3/11/2017","importe":93.02,"latitud":28.348841,"longitud":28.850161},
{"id":455,"fecha":"11/28/2017","importe":7.02,"latitud":26.1256441,"longitud":50.4980362},
{"id":456,"fecha":"5/19/2017","importe":86.1,"latitud":30.7717757,"longitud":-5.5459787},
{"id":457,"fecha":"4/12/2017","importe":19.74,"latitud":40.3373262,"longitud":20.6794676},
{"id":458,"fecha":"11/28/2017","importe":31.65,"latitud":26.308284,"longitud":119.677154},
{"id":459,"fecha":"5/12/2017","importe":19.26,"latitud":23.170455,"longitud":114.419667},
{"id":460,"fecha":"1/16/2017","importe":17.64,"latitud":27.569678,"longitud":116.63704},
{"id":461,"fecha":"2/23/2017","importe":4.89,"latitud":41.0606685,"longitud":24.0475546},
{"id":462,"fecha":"12/2/2017","importe":42.8,"latitud":-11.9590294,"longitud":-43.2134484},
{"id":463,"fecha":"3/1/2017","importe":83.27,"latitud":7.231262,"longitud":79.840886},
{"id":464,"fecha":"10/16/2017","importe":4.17,"latitud":-11.14718,"longitud":-73.035988},
{"id":465,"fecha":"5/7/2017","importe":4.42,"latitud":41.761923,"longitud":22.887043},
{"id":466,"fecha":"8/12/2017","importe":64.71,"latitud":62.9123239,"longitud":34.5739346},
{"id":467,"fecha":"5/7/2017","importe":19.12,"latitud":22.579117,"longitud":113.081508},
{"id":468,"fecha":"7/25/2017","importe":64.24,"latitud":54.0188307,"longitud":31.7244374},
{"id":469,"fecha":"4/17/2017","importe":53.8,"latitud":40.6999925,"longitud":-112.0118669},
{"id":470,"fecha":"1/14/2017","importe":60.01,"latitud":40.882377,"longitud":122.685217},
{"id":471,"fecha":"9/3/2017","importe":46.77,"latitud":"40.02219","longitud":"98.99644"},
{"id":472,"fecha":"11/1/2017","importe":92.64,"latitud":-34.5941789,"longitud":-58.7294973},
{"id":473,"fecha":"8/21/2017","importe":39.32,"latitud":59.3938804,"longitud":15.8607653},
{"id":474,"fecha":"12/21/2017","importe":87.76,"latitud":17.7409147,"longitud":-91.7660525},
{"id":475,"fecha":"1/30/2017","importe":16.48,"latitud":35.9924294,"longitud":140.6177909},
{"id":476,"fecha":"10/11/2017","importe":13.37,"latitud":20.7303804,"longitud":-103.3977222},
{"id":477,"fecha":"9/10/2017","importe":85.97,"latitud":48.1933831,"longitud":13.1657762},
{"id":478,"fecha":"3/7/2017","importe":56.03,"latitud":-8.3083083,"longitud":112.7211714},
{"id":479,"fecha":"2/2/2017","importe":3.7,"latitud":43.6218385,"longitud":3.8403455},
{"id":480,"fecha":"5/28/2017","importe":61.24,"latitud":41.0213628,"longitud":-80.6150117},
{"id":481,"fecha":"9/1/2017","importe":89.96,"latitud":13.6256926,"longitud":123.1848939},
{"id":482,"fecha":"2/8/2017","importe":40.7,"latitud":-42.7592642,"longitud":-65.0612637},
{"id":483,"fecha":"7/19/2017","importe":7.09,"latitud":58.4126605,"longitud":51.2826021},
{"id":484,"fecha":"9/17/2017","importe":74.83,"latitud":-23.4135017,"longitud":-46.3433897},
{"id":485,"fecha":"9/23/2017","importe":3.02,"latitud":40.417358,"longitud":117.500558},
{"id":486,"fecha":"1/11/2017","importe":28.59,"latitud":"15.41667","longitud":"-87.6"},
{"id":487,"fecha":"4/26/2017","importe":90.88,"latitud":38.456354,"longitud":99.542709},
{"id":488,"fecha":"5/18/2017","importe":34.64,"latitud":-27.5571934,"longitud":-53.9759139},
{"id":489,"fecha":"11/26/2017","importe":33.8,"latitud":54.356424,"longitud":41.9194126},
{"id":490,"fecha":"9/26/2017","importe":95.64,"latitud":"52.5387","longitud":"30.9173"},
{"id":491,"fecha":"3/23/2017","importe":8.48,"latitud":-8.7019653,"longitud":122.4184108},
{"id":492,"fecha":"3/9/2017","importe":82.12,"latitud":44.1660267,"longitud":19.0775332},
{"id":493,"fecha":"3/4/2017","importe":28.46,"latitud":52.9480781,"longitud":-7.0472382},
{"id":494,"fecha":"2/3/2017","importe":1.1,"latitud":42.5246357,"longitud":87.5395855},
{"id":495,"fecha":"2/8/2017","importe":54.2,"latitud":28.505315,"longitud":86.937376},
{"id":496,"fecha":"4/4/2017","importe":47.77,"latitud":39.8184959,"longitud":116.5558524},
{"id":497,"fecha":"8/15/2017","importe":52.15,"latitud":6.0343516,"longitud":124.5217429},
{"id":498,"fecha":"1/13/2017","importe":92.09,"latitud":39.1688385,"longitud":-8.768872},
{"id":499,"fecha":"10/13/2017","importe":30.78,"latitud":15.1398293,"longitud":-88.6714295},
{"id":500,"fecha":"5/23/2017","importe":9.36,"latitud":50.0330752,"longitud":16.7260055},
{"id":501,"fecha":"3/30/2017","importe":57.98,"latitud":"41.43254","longitud":"46.9646"},
{"id":502,"fecha":"7/30/2017","importe":4.13,"latitud":14.4712676,"longitud":121.0441201},
{"id":503,"fecha":"1/12/2017","importe":15.28,"latitud":53.3734053,"longitud":-6.3695384},
{"id":504,"fecha":"3/18/2017","importe":8.92,"latitud":48.834578,"longitud":23.4472258},
{"id":505,"fecha":"4/24/2017","importe":28.75,"latitud":36.158405,"longitud":45.4759898},
{"id":506,"fecha":"5/20/2017","importe":16.82,"latitud":58.5931974,"longitud":35.8080537},
{"id":507,"fecha":"11/8/2017","importe":35.86,"latitud":27.324479,"longitud":120.216978},
{"id":508,"fecha":"10/1/2017","importe":37.71,"latitud":"40.49155","longitud":"69.70245"},
{"id":509,"fecha":"10/5/2017","importe":46.18,"latitud":13.0553578,"longitud":99.8348146},
{"id":510,"fecha":"5/21/2017","importe":4.89,"latitud":22.816884,"longitud":115.830376},
{"id":511,"fecha":"9/2/2017","importe":82.75,"latitud":"9.2207","longitud":"122.9053"},
{"id":512,"fecha":"5/2/2017","importe":60.02,"latitud":"51.8796","longitud":"4.5059"},
{"id":513,"fecha":"12/12/2017","importe":15.61,"latitud":41.701706,"longitud":48.2809323},
{"id":514,"fecha":"2/10/2017","importe":37.49,"latitud":48.851792,"longitud":123.810261},
{"id":515,"fecha":"2/26/2017","importe":59.99,"latitud":27.820107,"longitud":105.965695},
{"id":516,"fecha":"9/30/2017","importe":90.65,"latitud":38.914003,"longitud":121.614682},
{"id":517,"fecha":"4/7/2017","importe":39.86,"latitud":48.1901461,"longitud":0.6732415},
{"id":518,"fecha":"2/1/2017","importe":62.8,"latitud":13.8015693,"longitud":121.1498452},
{"id":519,"fecha":"3/29/2017","importe":51.94,"latitud":38.5872939,"longitud":-9.179952},
{"id":520,"fecha":"12/13/2017","importe":54.32,"latitud":-7.460987,"longitud":111.3321974},
{"id":521,"fecha":"6/25/2017","importe":97.55,"latitud":59.9871162,"longitud":15.8125817},
{"id":522,"fecha":"10/21/2017","importe":50.07,"latitud":22.163704,"longitud":110.671258},
{"id":523,"fecha":"4/25/2017","importe":33.77,"latitud":1.4888401,"longitud":103.7839552},
{"id":524,"fecha":"6/11/2017","importe":20.88,"latitud":-45.8405005,"longitud":-67.4686475},
{"id":525,"fecha":"5/10/2017","importe":24.04,"latitud":52.1683391,"longitud":18.553654},
{"id":526,"fecha":"1/29/2017","importe":81.42,"latitud":35.580662,"longitud":104.626282},
{"id":527,"fecha":"7/14/2017","importe":88.63,"latitud":46.280897,"longitud":15.0737321},
{"id":528,"fecha":"1/17/2017","importe":84.52,"latitud":57.1785332,"longitud":41.9400627},
{"id":529,"fecha":"3/5/2017","importe":58.7,"latitud":23.8882098,"longitud":90.9605637},
{"id":530,"fecha":"11/23/2017","importe":34.04,"latitud":25.329044,"longitud":118.270238},
{"id":531,"fecha":"8/27/2017","importe":67.68,"latitud":10.3547319,"longitud":124.9703005},
{"id":532,"fecha":"12/2/2017","importe":22.49,"latitud":-6.4761564,"longitud":111.0400034},
{"id":533,"fecha":"11/17/2017","importe":83.48,"latitud":30.610203,"longitud":34.801898},
{"id":534,"fecha":"7/24/2017","importe":41.2,"latitud":-12.5825295,"longitud":-69.1932762},
{"id":535,"fecha":"8/12/2017","importe":71.27,"latitud":30.699439,"longitud":115.078981},
{"id":536,"fecha":"12/27/2017","importe":16.26,"latitud":13.470554,"longitud":14.707735},
{"id":537,"fecha":"10/15/2017","importe":6.17,"latitud":-3.6005866,"longitud":128.1160213},
{"id":538,"fecha":"7/9/2017","importe":99.56,"latitud":21.4394636,"longitud":92.0077316},
{"id":539,"fecha":"3/3/2017","importe":91.94,"latitud":6.2716406,"longitud":21.1950767},
{"id":540,"fecha":"9/10/2017","importe":8.59,"latitud":"-6.9072","longitud":"113.8825"},
{"id":541,"fecha":"7/25/2017","importe":50.27,"latitud":6.9280156,"longitud":79.8908308},
{"id":542,"fecha":"10/4/2017","importe":89.99,"latitud":42.5420213,"longitud":-91.1118075},
{"id":543,"fecha":"6/23/2017","importe":62.68,"latitud":41.2914665,"longitud":-8.270224},
{"id":544,"fecha":"11/8/2017","importe":7.66,"latitud":38.950239,"longitud":117.406384},
{"id":545,"fecha":"8/20/2017","importe":22.5,"latitud":39.4113773,"longitud":-8.803326},
{"id":546,"fecha":"5/6/2017","importe":21.07,"latitud":29.9919028,"longitud":-90.0795843},
{"id":547,"fecha":"1/1/2018","importe":56.63,"latitud":40.2947998,"longitud":72.1860386},
{"id":548,"fecha":"2/14/2017","importe":79.65,"latitud":-4.1471884,"longitud":119.9191194},
{"id":549,"fecha":"5/4/2017","importe":49.63,"latitud":12.9653403,"longitud":5.7418305},
{"id":550,"fecha":"3/31/2017","importe":26.41,"latitud":22.5397224,"longitud":114.1114725},
{"id":551,"fecha":"10/11/2017","importe":72.65,"latitud":9.7986027,"longitud":38.4271461},
{"id":552,"fecha":"5/29/2017","importe":97.98,"latitud":52.3636588,"longitud":4.9355226},
{"id":553,"fecha":"8/7/2017","importe":10.32,"latitud":27.522069,"longitud":116.336069},
{"id":554,"fecha":"8/24/2017","importe":72.3,"latitud":38.1302023,"longitud":140.0389531},
{"id":555,"fecha":"11/3/2017","importe":58.73,"latitud":30.07728,"longitud":103.848396},
{"id":556,"fecha":"7/18/2017","importe":42.9,"latitud":51.9696504,"longitud":47.3645344},
{"id":557,"fecha":"3/10/2017","importe":14.45,"latitud":37.429832,"longitud":110.88907},
{"id":558,"fecha":"6/20/2017","importe":71.96,"latitud":36.7534267,"longitud":139.2308293},
{"id":559,"fecha":"7/30/2017","importe":43.36,"latitud":63.071925,"longitud":27.6617536},
{"id":560,"fecha":"9/13/2017","importe":15.79,"latitud":50.5504089,"longitud":20.418024},
{"id":561,"fecha":"12/1/2017","importe":1.88,"latitud":41.0043316,"longitud":-8.4313535},
{"id":562,"fecha":"2/10/2017","importe":30.53,"latitud":47.5202786,"longitud":17.5142121},
{"id":563,"fecha":"9/5/2017","importe":24.52,"latitud":-7.5173045,"longitud":110.5933862},
{"id":564,"fecha":"8/4/2017","importe":89.26,"latitud":7.8272014,"longitud":-76.6429864},
{"id":565,"fecha":"1/5/2018","importe":80.41,"latitud":43.5634394,"longitud":6.9658358},
{"id":566,"fecha":"6/17/2017","importe":79.94,"latitud":53.3723602,"longitud":-0.7009333},
{"id":567,"fecha":"5/5/2017","importe":8.85,"latitud":10.8847156,"longitud":121.9757838},
{"id":568,"fecha":"4/13/2017","importe":61.17,"latitud":38.0135829,"longitud":23.8218079},
{"id":569,"fecha":"5/26/2017","importe":34.1,"latitud":22.8429803,"longitud":-82.0243657},
{"id":570,"fecha":"8/7/2017","importe":22.76,"latitud":-14.5124962,"longitud":-40.3496894},
{"id":571,"fecha":"5/8/2017","importe":38.72,"latitud":50.1855816,"longitud":15.0436604},
{"id":572,"fecha":"8/25/2017","importe":8.34,"latitud":32.110878,"longitud":118.724049},
{"id":573,"fecha":"4/21/2017","importe":92.61,"latitud":34.151624,"longitud":109.323479},
{"id":574,"fecha":"3/2/2017","importe":65.63,"latitud":-13.6211552,"longitud":29.3889082},
{"id":575,"fecha":"5/22/2017","importe":19.35,"latitud":58.1214207,"longitud":12.6443729},
{"id":576,"fecha":"11/29/2017","importe":95.42,"latitud":-22.0791603,"longitud":-51.477858},
{"id":577,"fecha":"7/4/2017","importe":3.83,"latitud":60.3560649,"longitud":5.3446343},
{"id":578,"fecha":"8/19/2017","importe":5.15,"latitud":55.5747494,"longitud":62.0725298},
{"id":579,"fecha":"7/6/2017","importe":42.57,"latitud":22.691253,"longitud":114.346251},
{"id":580,"fecha":"4/25/2017","importe":20.78,"latitud":-10.1904527,"longitud":123.6007574},
{"id":581,"fecha":"5/22/2017","importe":7.01,"latitud":-5.2368931,"longitud":-75.6557206},
{"id":582,"fecha":"2/1/2017","importe":87.22,"latitud":30.741991,"longitud":121.341969},
{"id":583,"fecha":"3/15/2017","importe":10.53,"latitud":28.845441,"longitud":121.131229},
{"id":584,"fecha":"7/18/2017","importe":63.26,"latitud":24.187566,"longitud":101.14473},
{"id":585,"fecha":"1/24/2017","importe":25.13,"latitud":55.7562751,"longitud":38.6792665},
{"id":586,"fecha":"3/10/2017","importe":13.29,"latitud":55.6776356,"longitud":99.1467618},
{"id":587,"fecha":"8/3/2017","importe":39.97,"latitud":-2.6284683,"longitud":-80.3895886},
{"id":588,"fecha":"10/17/2017","importe":17.74,"latitud":-7.043508,"longitud":-77.873172},
{"id":589,"fecha":"6/27/2017","importe":60.96,"latitud":2.7774231,"longitud":45.5016253},
{"id":590,"fecha":"9/4/2017","importe":31.44,"latitud":41.7509723,"longitud":43.5291848},
{"id":591,"fecha":"3/6/2017","importe":42.14,"latitud":40.7679191,"longitud":-93.3362962},
{"id":592,"fecha":"7/11/2017","importe":28.16,"latitud":53.6557845,"longitud":41.6873842},
{"id":593,"fecha":"8/22/2017","importe":4.18,"latitud":-7.76929,"longitud":114.2241895},
{"id":594,"fecha":"4/7/2017","importe":1.12,"latitud":8.3104933,"longitud":122.9938347},
{"id":595,"fecha":"3/9/2017","importe":85.36,"latitud":50.7592361,"longitud":17.6835478},
{"id":596,"fecha":"6/21/2017","importe":23.42,"latitud":-6.9110023,"longitud":107.1750393},
{"id":597,"fecha":"4/9/2017","importe":77.46,"latitud":-34.6331511,"longitud":-58.6431417},
{"id":598,"fecha":"12/20/2017","importe":49.15,"latitud":15.8785099,"longitud":120.3186429},
{"id":599,"fecha":"1/9/2018","importe":38.83,"latitud":44.128014,"longitud":18.1178262},
{"id":600,"fecha":"4/18/2017","importe":59.04,"latitud":42.3569364,"longitud":24.1115593},
{"id":601,"fecha":"11/25/2017","importe":1.36,"latitud":"50.35008","longitud":"-113.76866"},
{"id":602,"fecha":"4/5/2017","importe":33.01,"latitud":29.627993,"longitud":111.915162},
{"id":603,"fecha":"8/18/2017","importe":82.17,"latitud":5.3673999,"longitud":10.417181},
{"id":604,"fecha":"6/9/2017","importe":64.78,"latitud":"68.88333","longitud":"33.01667"},
{"id":605,"fecha":"10/24/2017","importe":2.18,"latitud":2.449478,"longitud":-75.772917},
{"id":606,"fecha":"1/30/2017","importe":86.04,"latitud":29.708692,"longitud":120.246863},
{"id":607,"fecha":"9/12/2017","importe":90.66,"latitud":41.2828507,"longitud":-8.2869478},
{"id":608,"fecha":"12/18/2017","importe":45.62,"latitud":28.373163,"longitud":116.079637},
{"id":609,"fecha":"12/15/2017","importe":22.43,"latitud":23.1656982,"longitud":89.4990219},
{"id":610,"fecha":"3/1/2017","importe":68.48,"latitud":18.1254083,"longitud":-77.1470783},
{"id":611,"fecha":"8/4/2017","importe":89.76,"latitud":24.803563,"longitud":115.482733},
{"id":612,"fecha":"1/13/2017","importe":96.35,"latitud":-3.2581112,"longitud":-79.9553924},
{"id":613,"fecha":"6/5/2017","importe":79.19,"latitud":22.058407,"longitud":110.792856},
{"id":614,"fecha":"4/15/2017","importe":92.25,"latitud":42.76631,"longitud":129.427066},
{"id":615,"fecha":"9/22/2017","importe":57.55,"latitud":31.3219,"longitud":121.01853},
{"id":616,"fecha":"12/5/2017","importe":83.4,"latitud":30.7765271,"longitud":121.247793},
{"id":617,"fecha":"3/18/2017","importe":49.59,"latitud":13.5432995,"longitud":-89.038242},
{"id":618,"fecha":"3/26/2017","importe":9.68,"latitud":48.4018664,"longitud":24.9415656},
{"id":619,"fecha":"6/14/2017","importe":75.84,"latitud":55.813957,"longitud":37.626119},
{"id":620,"fecha":"8/30/2017","importe":29.46,"latitud":37.026945,"longitud":111.916711},
{"id":621,"fecha":"2/6/2017","importe":22.89,"latitud":37.4325375,"longitud":112.0662843},
{"id":622,"fecha":"12/25/2017","importe":19.46,"latitud":30.5211502,"longitud":112.8915932},
{"id":623,"fecha":"6/1/2017","importe":53.6,"latitud":-7.3590199,"longitud":107.0362272},
{"id":624,"fecha":"3/16/2017","importe":68.3,"latitud":10.4825247,"longitud":105.4771084},
{"id":625,"fecha":"3/1/2017","importe":48.7,"latitud":39.367146,"longitud":26.1751462},
{"id":626,"fecha":"4/6/2017","importe":87.4,"latitud":50.994689,"longitud":-0.964804},
{"id":627,"fecha":"12/2/2017","importe":21.17,"latitud":26.319938,"longitud":113.810157},
{"id":628,"fecha":"1/7/2018","importe":42.8,"latitud":46.571039,"longitud":3.325957},
{"id":629,"fecha":"9/1/2017","importe":46.53,"latitud":31.643918,"longitud":114.879239},
{"id":630,"fecha":"1/12/2017","importe":2.61,"latitud":49.5642187,"longitud":13.5559769},
{"id":631,"fecha":"6/7/2017","importe":86.52,"latitud":9.948601,"longitud":99.0819914},
{"id":632,"fecha":"12/23/2017","importe":68.39,"latitud":"32.19061","longitud":"35.29332"},
{"id":633,"fecha":"6/7/2017","importe":48.48,"latitud":31.2289489,"longitud":121.4584218},
{"id":634,"fecha":"6/12/2017","importe":58.57,"latitud":14.6507289,"longitud":-90.5128018},
{"id":635,"fecha":"1/19/2017","importe":75.65,"latitud":8.6899208,"longitud":6.663812},
{"id":636,"fecha":"9/27/2017","importe":94.73,"latitud":-7.1929741,"longitud":111.7197315},
{"id":637,"fecha":"11/18/2017","importe":8.37,"latitud":53.6985264,"longitud":22.4329027},
{"id":638,"fecha":"1/14/2017","importe":45.67,"latitud":29.507848,"longitud":106.513904},
{"id":639,"fecha":"5/6/2017","importe":71.09,"latitud":15.2510231,"longitud":105.2316427},
{"id":640,"fecha":"1/27/2017","importe":66.81,"latitud":"-8.5988","longitud":"115.2401"},
{"id":641,"fecha":"9/24/2017","importe":43.03,"latitud":-5.0377529,"longitud":-49.8547266},
{"id":642,"fecha":"7/19/2017","importe":69.95,"latitud":40.9838888,"longitud":-5.6589414},
{"id":643,"fecha":"7/31/2017","importe":71.11,"latitud":42.3866449,"longitud":47.9018672},
{"id":644,"fecha":"2/11/2017","importe":79.52,"latitud":-26.1827713,"longitud":-56.3712327},
{"id":645,"fecha":"2/16/2017","importe":21.57,"latitud":26.433417,"longitud":110.856622},
{"id":646,"fecha":"12/3/2017","importe":21.54,"latitud":8.6020718,"longitud":-82.7247254},
{"id":647,"fecha":"2/27/2017","importe":44.05,"latitud":-6.9641448,"longitud":108.0124469},
{"id":648,"fecha":"11/24/2017","importe":15.26,"latitud":13.794468,"longitud":100.327706},
{"id":649,"fecha":"2/18/2017","importe":16.34,"latitud":54.914389,"longitud":85.646652},
{"id":650,"fecha":"1/28/2017","importe":51.53,"latitud":-28.6038255,"longitud":32.086585},
{"id":651,"fecha":"8/23/2017","importe":40.31,"latitud":23.110052,"longitud":113.240664},
{"id":652,"fecha":"10/19/2017","importe":8.27,"latitud":48.9942371,"longitud":24.1867294},
{"id":653,"fecha":"6/3/2017","importe":53.58,"latitud":31.336174,"longitud":109.898233},
{"id":654,"fecha":"2/22/2017","importe":12.68,"latitud":30.7664515,"longitud":70.9293858},
{"id":655,"fecha":"6/9/2017","importe":19.32,"latitud":39.4048977,"longitud":-9.135404},
{"id":656,"fecha":"10/30/2017","importe":71.88,"latitud":59.3537148,"longitud":17.1973864},
{"id":657,"fecha":"2/22/2017","importe":76.77,"latitud":31.440961,"longitud":34.99744},
{"id":658,"fecha":"4/10/2017","importe":69.19,"latitud":38.9175948,"longitud":22.3032419},
{"id":659,"fecha":"6/16/2017","importe":72.92,"latitud":-21.9751571,"longitud":-46.7997801},
{"id":660,"fecha":"11/25/2017","importe":98.0,"latitud":-22.7238417,"longitud":-51.4099625},
{"id":661,"fecha":"6/13/2017","importe":83.0,"latitud":-34.7383716,"longitud":-58.571838},
{"id":662,"fecha":"7/31/2017","importe":34.2,"latitud":38.1600508,"longitud":138.3046891},
{"id":663,"fecha":"5/9/2017","importe":68.88,"latitud":-27.508507,"longitud":-58.555985},
{"id":664,"fecha":"2/28/2017","importe":94.07,"latitud":49.917089,"longitud":19.468167},
{"id":665,"fecha":"6/20/2017","importe":66.47,"latitud":10.8026827,"longitud":105.1960795},
{"id":666,"fecha":"5/1/2017","importe":87.68,"latitud":"49.35499","longitud":"-97.36567"},
{"id":667,"fecha":"3/18/2017","importe":4.29,"latitud":10.3846169,"longitud":-67.0166725},
{"id":668,"fecha":"6/21/2017","importe":37.13,"latitud":-6.9424923,"longitud":111.5200007},
{"id":669,"fecha":"5/3/2017","importe":79.79,"latitud":51.1907529,"longitud":42.2463427},
{"id":670,"fecha":"10/11/2017","importe":68.03,"latitud":57.3937216,"longitud":21.5647066},
{"id":671,"fecha":"2/28/2017","importe":72.81,"latitud":-21.8324773,"longitud":-46.8925845},
{"id":672,"fecha":"2/12/2017","importe":66.01,"latitud":49.145018,"longitud":1.0859715},
{"id":673,"fecha":"12/14/2017","importe":70.46,"latitud":10.5000062,"longitud":122.8701588},
{"id":674,"fecha":"3/11/2017","importe":82.77,"latitud":-19.5547969,"longitud":-44.0871994},
{"id":675,"fecha":"3/10/2017","importe":46.85,"latitud":39.638035,"longitud":113.737801},
{"id":676,"fecha":"10/25/2017","importe":52.04,"latitud":28.159141,"longitud":115.771093},
{"id":677,"fecha":"7/16/2017","importe":36.7,"latitud":28.362805,"longitud":118.400294},
{"id":678,"fecha":"2/20/2017","importe":68.07,"latitud":31.270307,"longitud":121.537613},
{"id":679,"fecha":"8/3/2017","importe":91.02,"latitud":-22.5845295,"longitud":-44.0491741},
{"id":680,"fecha":"6/22/2017","importe":77.91,"latitud":33.170904,"longitud":115.623491},
{"id":681,"fecha":"1/7/2018","importe":70.29,"latitud":14.499307,"longitud":121.058178},
{"id":682,"fecha":"11/15/2017","importe":87.55,"latitud":52.4598946,"longitud":17.6844943},
{"id":683,"fecha":"4/7/2017","importe":40.09,"latitud":-8.1578871,"longitud":112.2771485},
{"id":684,"fecha":"7/25/2017","importe":21.27,"latitud":52.5010192,"longitud":48.0923303},
{"id":685,"fecha":"2/9/2017","importe":71.62,"latitud":40.4999888,"longitud":22.8766281},
{"id":686,"fecha":"8/17/2017","importe":7.33,"latitud":-7.7257788,"longitud":108.1636206},
{"id":687,"fecha":"8/13/2017","importe":39.28,"latitud":"13.26831","longitud":"43.50993"},
{"id":688,"fecha":"7/31/2017","importe":58.71,"latitud":53.1257947,"longitud":20.351356},
{"id":689,"fecha":"8/17/2017","importe":34.87,"latitud":35.3890138,"longitud":139.5007628},
{"id":690,"fecha":"4/26/2017","importe":42.9,"latitud":9.4488704,"longitud":-82.485187},
{"id":691,"fecha":"12/19/2017","importe":18.51,"latitud":41.707342,"longitud":-8.3509957},
{"id":692,"fecha":"7/21/2017","importe":69.52,"latitud":27.4475626,"longitud":57.5051616},
{"id":693,"fecha":"7/13/2017","importe":83.65,"latitud":-34.2899021,"longitud":-56.3964126},
{"id":694,"fecha":"11/20/2017","importe":60.82,"latitud":54.305019,"longitud":23.747034},
{"id":695,"fecha":"10/5/2017","importe":30.01,"latitud":3.01228,"longitud":-76.484533},
{"id":696,"fecha":"5/20/2017","importe":55.12,"latitud":41.549665,"longitud":-7.3871483},
{"id":697,"fecha":"7/3/2017","importe":32.19,"latitud":41.1241415,"longitud":-8.2082378},
{"id":698,"fecha":"7/24/2017","importe":2.23,"latitud":-6.669221,"longitud":106.0463837},
{"id":699,"fecha":"3/8/2017","importe":63.94,"latitud":38.7760203,"longitud":-9.1024092},
{"id":700,"fecha":"11/10/2017","importe":54.49,"latitud":"-6","longitud":"-40.28333"},
{"id":701,"fecha":"2/4/2017","importe":93.72,"latitud":56.6444907,"longitud":14.224297},
{"id":702,"fecha":"11/27/2017","importe":66.77,"latitud":38.8179787,"longitud":-9.3854336},
{"id":703,"fecha":"8/1/2017","importe":74.22,"latitud":-29.501873,"longitud":-51.9640632},
{"id":704,"fecha":"5/9/2017","importe":95.95,"latitud":-7.2929068,"longitud":107.2666396},
{"id":705,"fecha":"10/27/2017","importe":61.36,"latitud":15.312631,"longitud":120.8617812},
{"id":706,"fecha":"6/8/2017","importe":86.36,"latitud":11.228282,"longitud":124.572975},
{"id":707,"fecha":"5/10/2017","importe":51.47,"latitud":49.6046109,"longitud":14.2774242},
{"id":708,"fecha":"3/2/2017","importe":39.96,"latitud":40.5843775,"longitud":21.4901672},
{"id":709,"fecha":"7/11/2017","importe":18.03,"latitud":-9.7451212,"longitud":124.6082018},
{"id":710,"fecha":"5/3/2017","importe":67.19,"latitud":52.2876905,"longitud":45.3602833},
{"id":711,"fecha":"12/28/2017","importe":17.44,"latitud":55.7942138,"longitud":37.4827996},
{"id":712,"fecha":"4/1/2017","importe":28.15,"latitud":42.65,"longitud":103.8},
{"id":713,"fecha":"4/6/2017","importe":84.63,"latitud":21.938596,"longitud":110.552977},
{"id":714,"fecha":"3/10/2017","importe":99.94,"latitud":10.6227552,"longitud":1.2650349},
{"id":715,"fecha":"11/14/2017","importe":38.47,"latitud":39.8914201,"longitud":-8.767762},
{"id":716,"fecha":"1/8/2018","importe":69.65,"latitud":31.717564,"longitud":119.382381},
{"id":717,"fecha":"11/18/2017","importe":96.78,"latitud":37.359264,"longitud":115.408747},
{"id":718,"fecha":"3/29/2017","importe":28.75,"latitud":56.4342328,"longitud":37.1584572},
{"id":719,"fecha":"4/13/2017","importe":33.27,"latitud":15.5805384,"longitud":-61.3297698},
{"id":720,"fecha":"2/25/2017","importe":29.87,"latitud":32.060255,"longitud":118.796877},
{"id":721,"fecha":"4/21/2017","importe":13.22,"latitud":41.5331853,"longitud":-8.2524001},
{"id":722,"fecha":"2/23/2017","importe":20.42,"latitud":34.683646,"longitud":112.469023},
{"id":723,"fecha":"5/27/2017","importe":55.77,"latitud":44.2643449,"longitud":43.6369585},
{"id":724,"fecha":"2/4/2017","importe":87.76,"latitud":31.983055,"longitud":120.183979},
{"id":725,"fecha":"3/18/2017","importe":7.49,"latitud":45.536587,"longitud":19.150386},
{"id":726,"fecha":"4/24/2017","importe":28.71,"latitud":56.7034937,"longitud":41.3503153},
{"id":727,"fecha":"5/30/2017","importe":86.11,"latitud":32.5483419,"longitud":120.4520149},
{"id":728,"fecha":"7/3/2017","importe":20.35,"latitud":41.4222316,"longitud":-8.2464998},
{"id":729,"fecha":"4/26/2017","importe":69.75,"latitud":"52.31683","longitud":"-112.71861"},
{"id":730,"fecha":"12/4/2017","importe":11.19,"latitud":33.76,"longitud":-84.39},
{"id":731,"fecha":"1/17/2017","importe":63.1,"latitud":31.304274,"longitud":117.924148},
{"id":732,"fecha":"1/15/2017","importe":82.88,"latitud":40.570338,"longitud":116.554665},
{"id":733,"fecha":"12/22/2017","importe":33.62,"latitud":16.1091703,"longitud":120.0885626},
{"id":734,"fecha":"12/17/2017","importe":82.13,"latitud":38.7831729,"longitud":-9.3242937},
{"id":735,"fecha":"9/8/2017","importe":44.5,"latitud":54.152383,"longitud":33.2878545},
{"id":736,"fecha":"11/28/2017","importe":65.92,"latitud":49.7058855,"longitud":6.3726286},
{"id":737,"fecha":"1/22/2017","importe":11.55,"latitud":28.861256,"longitud":116.783842},
{"id":738,"fecha":"6/6/2017","importe":9.06,"latitud":3.1035814,"longitud":101.640078},
{"id":739,"fecha":"2/13/2017","importe":47.52,"latitud":20.2218201,"longitud":-75.9869609},
{"id":740,"fecha":"6/22/2017","importe":98.84,"latitud":42.4678076,"longitud":-70.9844},
{"id":741,"fecha":"9/11/2017","importe":13.61,"latitud":31.266133,"longitud":121.611248},
{"id":742,"fecha":"12/21/2017","importe":3.89,"latitud":28.074649,"longitud":119.141473},
{"id":743,"fecha":"8/20/2017","importe":76.11,"latitud":-6.3413734,"longitud":106.5495683},
{"id":744,"fecha":"2/24/2017","importe":39.13,"latitud":9.8965273,"longitud":8.8583309},
{"id":745,"fecha":"12/13/2017","importe":25.35,"latitud":-22.504198,"longitud":-48.71221},
{"id":746,"fecha":"11/18/2017","importe":39.58,"latitud":25.2747395,"longitud":110.2979995},
{"id":747,"fecha":"3/12/2017","importe":20.64,"latitud":3.1645789,"longitud":-65.551361},
{"id":748,"fecha":"7/26/2017","importe":89.85,"latitud":41.3402313,"longitud":-8.3633682},
{"id":749,"fecha":"3/27/2017","importe":32.71,"latitud":29.079175,"longitud":119.64742},
{"id":750,"fecha":"7/25/2017","importe":40.22,"latitud":29.222417,"longitud":89.982425},
{"id":751,"fecha":"6/6/2017","importe":79.51,"latitud":40.9180569,"longitud":-73.8977693},
{"id":752,"fecha":"11/3/2017","importe":81.81,"latitud":20.0910963,"longitud":-98.7623874},
{"id":753,"fecha":"9/13/2017","importe":86.34,"latitud":33.631238,"longitud":113.645873},
{"id":754,"fecha":"12/5/2017","importe":89.29,"latitud":7.8129929,"longitud":-71.1745579},
{"id":755,"fecha":"12/2/2017","importe":49.7,"latitud":9.5188754,"longitud":-7.5572231},
{"id":756,"fecha":"7/25/2017","importe":17.96,"latitud":15.8206635,"longitud":103.7636752},
{"id":757,"fecha":"2/20/2017","importe":61.32,"latitud":40.6390928,"longitud":-8.5992965},
{"id":758,"fecha":"11/28/2017","importe":39.08,"latitud":29.04797,"longitud":105.944081},
{"id":759,"fecha":"11/16/2017","importe":32.89,"latitud":48.738967,"longitud":37.58435},
{"id":760,"fecha":"8/14/2017","importe":77.12,"latitud":40.6318731,"longitud":48.6363801},
{"id":761,"fecha":"4/20/2017","importe":27.49,"latitud":44.0766295,"longitud":132.3885311},
{"id":762,"fecha":"3/19/2017","importe":76.74,"latitud":39.704676,"longitud":122.955872},
{"id":763,"fecha":"8/21/2017","importe":66.17,"latitud":"37.48972","longitud":"127.49056"},
{"id":764,"fecha":"4/27/2017","importe":50.97,"latitud":53.5830905,"longitud":9.7537598},
{"id":765,"fecha":"5/7/2017","importe":39.53,"latitud":-6.4031324,"longitud":107.4552608},
{"id":766,"fecha":"7/7/2017","importe":4.84,"latitud":-6.8958608,"longitud":111.0579632},
{"id":767,"fecha":"3/29/2017","importe":43.46,"latitud":36.0534598,"longitud":69.1089444},
{"id":768,"fecha":"8/1/2017","importe":95.16,"latitud":22.6113591,"longitud":120.3493158},
{"id":769,"fecha":"6/22/2017","importe":6.86,"latitud":49.5970348,"longitud":16.041166},
{"id":770,"fecha":"11/12/2017","importe":81.14,"latitud":27.402484,"longitud":33.6511438},
{"id":771,"fecha":"10/4/2017","importe":39.48,"latitud":52.56166,"longitud":17.82264},
{"id":772,"fecha":"9/1/2017","importe":80.99,"latitud":-6.9174639,"longitud":107.6191228},
{"id":773,"fecha":"8/16/2017","importe":80.33,"latitud":53.1371437,"longitud":19.2779375},
{"id":774,"fecha":"3/17/2017","importe":50.93,"latitud":-10.1790674,"longitud":123.5770012},
{"id":775,"fecha":"12/5/2017","importe":12.52,"latitud":59.4005705,"longitud":16.4401504},
{"id":776,"fecha":"7/13/2017","importe":11.11,"latitud":43.9676803,"longitud":133.0547021},
{"id":777,"fecha":"6/21/2017","importe":31.93,"latitud":41.634449,"longitud":22.4665446},
{"id":778,"fecha":"2/3/2017","importe":12.12,"latitud":11.4820004,"longitud":122.3040009},
{"id":779,"fecha":"5/13/2017","importe":27.37,"latitud":38.8974442,"longitud":-77.0296868},
{"id":780,"fecha":"1/23/2017","importe":19.01,"latitud":59.330173,"longitud":18.0551861},
{"id":781,"fecha":"3/16/2017","importe":22.5,"latitud":55.662882,"longitud":37.5826719},
{"id":782,"fecha":"11/26/2017","importe":66.55,"latitud":51.3309754,"longitud":19.3744004},
{"id":783,"fecha":"12/22/2017","importe":66.22,"latitud":47.785421,"longitud":-3.2602564},
{"id":784,"fecha":"3/24/2017","importe":35.22,"latitud":24.874132,"longitud":118.675675},
{"id":785,"fecha":"3/12/2017","importe":3.22,"latitud":44.351935,"longitud":-87.8445954},
{"id":786,"fecha":"7/8/2017","importe":21.5,"latitud":6.902156,"longitud":80.58662},
{"id":787,"fecha":"4/20/2017","importe":48.58,"latitud":47.287125,"longitud":5.993932},
{"id":788,"fecha":"5/6/2017","importe":14.1,"latitud":27.791393,"longitud":110.864121},
{"id":789,"fecha":"11/13/2017","importe":94.21,"latitud":56.3103675,"longitud":38.1016955},
{"id":790,"fecha":"12/10/2017","importe":50.95,"latitud":44.9870496,"longitud":38.994454},
{"id":791,"fecha":"8/5/2017","importe":2.45,"latitud":45.2188634,"longitud":17.3811959},
{"id":792,"fecha":"6/12/2017","importe":84.47,"latitud":63.503807,"longitud":53.410931},
{"id":793,"fecha":"7/3/2017","importe":87.88,"latitud":46.6974533,"longitud":35.165005},
{"id":794,"fecha":"10/30/2017","importe":42.29,"latitud":31.3115396,"longitud":120.6947551},
{"id":795,"fecha":"2/1/2017","importe":7.81,"latitud":-34.8176238,"longitud":-56.0182019},
{"id":796,"fecha":"1/24/2017","importe":9.58,"latitud":28.650932,"longitud":86.435767},
{"id":797,"fecha":"10/2/2017","importe":70.24,"latitud":54.4911487,"longitud":34.9798944},
{"id":798,"fecha":"11/20/2017","importe":44.28,"latitud":"32.90871","longitud":"35.63198"},
{"id":799,"fecha":"6/28/2017","importe":88.2,"latitud":18.4885697,"longitud":-69.9299089},
{"id":800,"fecha":"10/2/2017","importe":18.96,"latitud":29.3738721,"longitud":71.6934843},
{"id":801,"fecha":"5/8/2017","importe":98.42,"latitud":8.0093062,"longitud":-62.4015536},
{"id":802,"fecha":"2/23/2017","importe":8.01,"latitud":28.739865,"longitud":106.720976},
{"id":803,"fecha":"4/20/2017","importe":56.79,"latitud":"-3.0114","longitud":"133.7626"},
{"id":804,"fecha":"7/23/2017","importe":46.53,"latitud":36.7338782,"longitud":69.5394189},
{"id":805,"fecha":"7/22/2017","importe":68.42,"latitud":-3.3186067,"longitud":114.5943784},
{"id":806,"fecha":"9/5/2017","importe":96.95,"latitud":47.59585,"longitud":126.100213},
{"id":807,"fecha":"6/15/2017","importe":56.55,"latitud":53.4249712,"longitud":58.9688869},
{"id":808,"fecha":"8/15/2017","importe":6.78,"latitud":50.578132,"longitud":15.0839052},
{"id":809,"fecha":"6/16/2017","importe":1.4,"latitud":-0.789275,"longitud":113.921327},
{"id":810,"fecha":"8/24/2017","importe":54.32,"latitud":-20.9827531,"longitud":-48.0563942},
{"id":811,"fecha":"1/1/2018","importe":42.57,"latitud":46.6522568,"longitud":33.3646929},
{"id":812,"fecha":"11/18/2017","importe":33.06,"latitud":-4.0644217,"longitud":35.3548545},
{"id":813,"fecha":"8/3/2017","importe":53.97,"latitud":-7.311248,"longitud":106.4786051},
{"id":814,"fecha":"8/24/2017","importe":41.01,"latitud":51.6113555,"longitud":19.8982345},
{"id":815,"fecha":"10/11/2017","importe":44.01,"latitud":49.1184617,"longitud":26.3361413},
{"id":816,"fecha":"3/22/2017","importe":22.17,"latitud":52.5077777,"longitud":5.4757709},
{"id":817,"fecha":"5/5/2017","importe":30.14,"latitud":50.0198084,"longitud":33.9416726},
{"id":818,"fecha":"5/13/2017","importe":74.38,"latitud":26.4755204,"longitud":67.7240089},
{"id":819,"fecha":"3/25/2017","importe":95.31,"latitud":-21.4261129,"longitud":-45.9481612},
{"id":820,"fecha":"7/20/2017","importe":51.16,"latitud":34.329605,"longitud":108.708991},
{"id":821,"fecha":"4/28/2017","importe":28.08,"latitud":37.1358509,"longitud":-8.4528179},
{"id":822,"fecha":"12/1/2017","importe":56.86,"latitud":30.024828,"longitud":121.343065},
{"id":823,"fecha":"4/7/2017","importe":52.57,"latitud":26.732065,"longitud":67.786348},
{"id":824,"fecha":"7/8/2017","importe":92.06,"latitud":60.5770445,"longitud":16.5120356},
{"id":825,"fecha":"3/6/2017","importe":37.23,"latitud":3.8788254,"longitud":98.478759},
{"id":826,"fecha":"11/7/2017","importe":94.89,"latitud":-8.1950813,"longitud":111.9403254},
{"id":827,"fecha":"10/23/2017","importe":73.35,"latitud":-30.5148445,"longitud":-53.4832383},
{"id":828,"fecha":"7/17/2017","importe":18.99,"latitud":41.4575762,"longitud":-8.5717827},
{"id":829,"fecha":"9/17/2017","importe":13.84,"latitud":52.1798263,"longitud":85.9642685},
{"id":830,"fecha":"3/3/2017","importe":90.63,"latitud":7.7916349,"longitud":122.7785327},
{"id":831,"fecha":"11/11/2017","importe":41.36,"latitud":42.1811386,"longitud":69.8824972},
{"id":832,"fecha":"1/28/2017","importe":52.3,"latitud":46.8700877,"longitud":43.0650548},
{"id":833,"fecha":"11/22/2017","importe":4.14,"latitud":"45.8334","longitud":"-79.38293"},
{"id":834,"fecha":"10/9/2017","importe":91.04,"latitud":-7.130192,"longitud":112.420603},
{"id":835,"fecha":"7/6/2017","importe":49.9,"latitud":44.5847556,"longitud":21.7503934},
{"id":836,"fecha":"4/29/2017","importe":80.02,"latitud":56.730693,"longitud":16.2984317},
{"id":837,"fecha":"8/27/2017","importe":93.7,"latitud":14.5624842,"longitud":121.0482871},
{"id":838,"fecha":"12/29/2017","importe":19.13,"latitud":-23.8107528,"longitud":-47.1752123},
{"id":839,"fecha":"11/27/2017","importe":55.45,"latitud":16.0567117,"longitud":49.0059852},
{"id":840,"fecha":"4/3/2017","importe":6.58,"latitud":47.73021,"longitud":126.9826111},
{"id":841,"fecha":"2/23/2017","importe":68.44,"latitud":38.700427,"longitud":112.117542},
{"id":842,"fecha":"11/8/2017","importe":76.58,"latitud":51.0177556,"longitud":21.5418795},
{"id":843,"fecha":"2/9/2017","importe":86.05,"latitud":61.7267327,"longitud":75.333769},
{"id":844,"fecha":"2/7/2017","importe":84.92,"latitud":41.821778,"longitud":124.048453},
{"id":845,"fecha":"9/24/2017","importe":27.14,"latitud":37.4732405,"longitud":126.6311968},
{"id":846,"fecha":"10/26/2017","importe":29.96,"latitud":53.5087757,"longitud":50.1567556},
{"id":847,"fecha":"11/4/2017","importe":14.08,"latitud":14.549394,"longitud":-90.789918},
{"id":848,"fecha":"4/9/2017","importe":81.01,"latitud":60.5381467,"longitud":15.427113},
{"id":849,"fecha":"6/5/2017","importe":26.81,"latitud":25.5822549,"longitud":-100.9086492},
{"id":850,"fecha":"3/24/2017","importe":19.83,"latitud":34.326903,"longitud":108.117456},
{"id":851,"fecha":"6/2/2017","importe":82.9,"latitud":11.3410027,"longitud":-14.935965},
{"id":852,"fecha":"5/21/2017","importe":9.28,"latitud":42.0952531,"longitud":-8.2507177},
{"id":853,"fecha":"3/5/2017","importe":42.7,"latitud":22.5835642,"longitud":-83.9479637},
{"id":854,"fecha":"1/21/2017","importe":94.91,"latitud":28.109577,"longitud":107.269482},
{"id":855,"fecha":"11/16/2017","importe":97.69,"latitud":41.1637808,"longitud":44.8746069},
{"id":856,"fecha":"3/6/2017","importe":13.21,"latitud":47.173426,"longitud":125.9063009},
{"id":857,"fecha":"3/22/2017","importe":97.68,"latitud":9.2209606,"longitud":-74.4028287},
{"id":858,"fecha":"11/10/2017","importe":82.03,"latitud":-22.2131635,"longitud":-49.6555394},
{"id":859,"fecha":"4/16/2017","importe":62.09,"latitud":24.9936281,"longitud":121.3009798},
{"id":860,"fecha":"11/30/2017","importe":49.04,"latitud":25.386379,"longitud":114.922922},
{"id":861,"fecha":"11/18/2017","importe":93.01,"latitud":-7.1269261,"longitud":112.3337769},
{"id":862,"fecha":"12/7/2017","importe":18.58,"latitud":37.9810474,"longitud":23.6498494},
{"id":863,"fecha":"4/2/2017","importe":63.59,"latitud":-7.2033646,"longitud":111.6630914},
{"id":864,"fecha":"10/18/2017","importe":12.01,"latitud":-39.5365944,"longitud":176.8492097},
{"id":865,"fecha":"7/29/2017","importe":16.43,"latitud":39.7083252,"longitud":20.7237136},
{"id":866,"fecha":"3/30/2017","importe":33.35,"latitud":43.9375282,"longitud":15.162899},
{"id":867,"fecha":"9/21/2017","importe":90.82,"latitud":59.3164285,"longitud":18.0590482},
{"id":868,"fecha":"7/6/2017","importe":57.45,"latitud":-3.0500015,"longitud":102.8169757},
{"id":869,"fecha":"4/18/2017","importe":7.46,"latitud":43.817071,"longitud":125.323544},
{"id":870,"fecha":"3/12/2017","importe":69.3,"latitud":-2.4659779,"longitud":28.817249},
{"id":871,"fecha":"12/19/2017","importe":61.62,"latitud":4.7442679,"longitud":119.402976},
{"id":872,"fecha":"1/1/2018","importe":76.7,"latitud":51.4299433,"longitud":5.4072542},
{"id":873,"fecha":"11/14/2017","importe":54.43,"latitud":-23.5388072,"longitud":-47.4563943},
{"id":874,"fecha":"8/30/2017","importe":83.39,"latitud":-7.5629468,"longitud":111.4559084},
{"id":875,"fecha":"9/11/2017","importe":63.58,"latitud":-8.1658601,"longitud":111.7763713},
{"id":876,"fecha":"3/20/2017","importe":43.53,"latitud":-8.5146254,"longitud":121.9131761},
{"id":877,"fecha":"6/27/2017","importe":37.61,"latitud":14.9649534,"longitud":102.6298251},
{"id":878,"fecha":"4/25/2017","importe":17.79,"latitud":40.5200214,"longitud":22.3953372},
{"id":879,"fecha":"9/22/2017","importe":46.74,"latitud":63.0741927,"longitud":25.8645193},
{"id":880,"fecha":"11/12/2017","importe":38.01,"latitud":30.316361,"longitud":118.781868},
{"id":881,"fecha":"5/5/2017","importe":81.46,"latitud":-8.4929791,"longitud":119.0110762},
{"id":882,"fecha":"8/28/2017","importe":14.2,"latitud":27.8827043,"longitud":53.4284076},
{"id":883,"fecha":"4/27/2017","importe":91.77,"latitud":45.7120639,"longitud":19.6574694},
{"id":884,"fecha":"12/24/2017","importe":84.13,"latitud":-1.5117336,"longitud":102.7479899},
{"id":885,"fecha":"8/13/2017","importe":76.87,"latitud":7.3766609,"longitud":122.2900844},
{"id":886,"fecha":"5/13/2017","importe":98.22,"latitud":27.522069,"longitud":116.336069},
{"id":887,"fecha":"4/30/2017","importe":81.49,"latitud":-29.2950409,"longitud":-51.5008921},
{"id":888,"fecha":"2/15/2017","importe":14.78,"latitud":-8.1924285,"longitud":112.7011258},
{"id":889,"fecha":"1/6/2018","importe":67.45,"latitud":36.119485,"longitud":128.3445734},
{"id":890,"fecha":"11/30/2017","importe":44.31,"latitud":11.9647465,"longitud":43.2884071},
{"id":891,"fecha":"11/9/2017","importe":80.13,"latitud":-7.3024274,"longitud":112.7137227},
{"id":892,"fecha":"5/4/2017","importe":15.98,"latitud":49.1169513,"longitud":101.449837},
{"id":893,"fecha":"12/17/2017","importe":63.46,"latitud":-6.813931,"longitud":108.1784455},
{"id":894,"fecha":"7/29/2017","importe":12.94,"latitud":-2.1667354,"longitud":101.0699339},
{"id":895,"fecha":"8/18/2017","importe":3.76,"latitud":"-8.8025","longitud":"117.7774"},
{"id":896,"fecha":"5/25/2017","importe":85.17,"latitud":59.3409629,"longitud":18.0669843},
{"id":897,"fecha":"8/3/2017","importe":51.73,"latitud":28.262375,"longitud":109.698015},
{"id":898,"fecha":"7/9/2017","importe":5.69,"latitud":-23.062277,"longitud":-54.1999693},
{"id":899,"fecha":"3/9/2017","importe":27.34,"latitud":33.9255183,"longitud":-83.9214896},
{"id":900,"fecha":"9/25/2017","importe":4.97,"latitud":"16.70056","longitud":"44.41454"},
{"id":901,"fecha":"12/23/2017","importe":93.5,"latitud":-29.0563937,"longitud":167.959588},
{"id":902,"fecha":"7/3/2017","importe":21.99,"latitud":25.454084,"longitud":119.007777},
{"id":903,"fecha":"10/31/2017","importe":46.94,"latitud":41.2496914,"longitud":-7.948491},
{"id":904,"fecha":"4/22/2017","importe":3.05,"latitud":60.4136423,"longitud":44.2412709},
{"id":905,"fecha":"2/9/2017","importe":11.87,"latitud":50.5213838,"longitud":2.6404239},
{"id":906,"fecha":"12/20/2017","importe":38.42,"latitud":31.295228,"longitud":34.333152},
{"id":907,"fecha":"3/2/2017","importe":23.53,"latitud":41.6570939,"longitud":-8.573081},
{"id":908,"fecha":"8/3/2017","importe":40.19,"latitud":40.3984011,"longitud":-8.7050402},
{"id":909,"fecha":"11/9/2017","importe":83.94,"latitud":22.551367,"longitud":114.088418},
{"id":910,"fecha":"12/14/2017","importe":79.48,"latitud":-3.9257199,"longitud":29.9899512},
{"id":911,"fecha":"5/17/2017","importe":22.59,"latitud":49.6207834,"longitud":20.704183},
{"id":912,"fecha":"6/13/2017","importe":92.63,"latitud":48.6563441,"longitud":6.1856748},
{"id":913,"fecha":"7/16/2017","importe":59.91,"latitud":"8.71278","longitud":"126.20806"},
{"id":914,"fecha":"11/23/2017","importe":63.09,"latitud":"-7.0972","longitud":"113.6404"},
{"id":915,"fecha":"11/13/2017","importe":49.12,"latitud":34.363184,"longitud":107.237743},
{"id":916,"fecha":"6/21/2017","importe":25.1,"latitud":41.9121057,"longitud":22.4068944},
{"id":917,"fecha":"12/15/2017","importe":56.78,"latitud":38.9322221,"longitud":-9.0158578},
{"id":918,"fecha":"9/13/2017","importe":18.03,"latitud":37.8336508,"longitud":140.557325},
{"id":919,"fecha":"12/14/2017","importe":21.23,"latitud":41.2662428,"longitud":-8.1163493},
{"id":920,"fecha":"3/21/2017","importe":40.97,"latitud":43.1839958,"longitud":16.5992505},
{"id":921,"fecha":"8/18/2017","importe":47.02,"latitud":50.24417,"longitud":21.77627},
{"id":922,"fecha":"2/24/2017","importe":93.73,"latitud":9.0343296,"longitud":-79.4942916},
{"id":923,"fecha":"7/17/2017","importe":68.66,"latitud":35.819227,"longitud":108.019549},
{"id":924,"fecha":"9/8/2017","importe":78.27,"latitud":63.6106858,"longitud":26.9828477},
{"id":925,"fecha":"6/13/2017","importe":60.71,"latitud":-20.2904186,"longitud":44.2999955},
{"id":926,"fecha":"8/11/2017","importe":47.01,"latitud":39.442222,"longitud":112.464886},
{"id":927,"fecha":"11/7/2017","importe":50.99,"latitud":40.5555236,"longitud":22.4712129},
{"id":928,"fecha":"8/23/2017","importe":31.0,"latitud":44.9829,"longitud":128.720857},
{"id":929,"fecha":"9/16/2017","importe":18.35,"latitud":19.5463056,"longitud":105.0791228},
{"id":930,"fecha":"1/18/2017","importe":68.02,"latitud":50.8508489,"longitud":21.0111639},
{"id":931,"fecha":"11/29/2017","importe":77.02,"latitud":42.896821,"longitud":-79.2620294},
{"id":932,"fecha":"11/2/2017","importe":64.0,"latitud":34.540852,"longitud":109.44096},
{"id":933,"fecha":"1/15/2017","importe":62.16,"latitud":17.193029,"longitud":21.58589},
{"id":934,"fecha":"6/12/2017","importe":1.79,"latitud":31.018498,"longitud":109.463987},
{"id":935,"fecha":"12/29/2017","importe":69.51,"latitud":8.3,"longitud":-11.983333},
{"id":936,"fecha":"7/24/2017","importe":75.73,"latitud":59.853262,"longitud":17.6356163},
{"id":937,"fecha":"10/12/2017","importe":65.93,"latitud":40.3999248,"longitud":49.9789212},
{"id":938,"fecha":"9/30/2017","importe":38.64,"latitud":35.3922378,"longitud":-97.4273195},
{"id":939,"fecha":"5/29/2017","importe":11.3,"latitud":42.632281,"longitud":122.980034},
{"id":940,"fecha":"6/2/2017","importe":64.54,"latitud":28.46763,"longitud":119.922796},
{"id":941,"fecha":"10/19/2017","importe":87.46,"latitud":14.0790439,"longitud":5.956825},
{"id":942,"fecha":"4/1/2017","importe":90.27,"latitud":22.843818,"longitud":114.164223},
{"id":943,"fecha":"9/4/2017","importe":97.92,"latitud":50.3406189,"longitud":21.050137},
{"id":944,"fecha":"12/2/2017","importe":29.71,"latitud":-2.1678255,"longitud":33.5811995},
{"id":945,"fecha":"4/13/2017","importe":37.59,"latitud":37.4562557,"longitud":126.7052062},
{"id":946,"fecha":"1/6/2018","importe":54.23,"latitud":30.092022,"longitud":121.936745},
{"id":947,"fecha":"2/8/2017","importe":47.05,"latitud":-14.8518869,"longitud":-66.7486446},
{"id":948,"fecha":"5/8/2017","importe":36.15,"latitud":37.73892,"longitud":115.670177},
{"id":949,"fecha":"11/16/2017","importe":81.59,"latitud":61.9639779,"longitud":129.9131287},
{"id":950,"fecha":"4/21/2017","importe":87.3,"latitud":1.504786,"longitud":103.82287},
{"id":951,"fecha":"9/2/2017","importe":30.83,"latitud":-31.7436794,"longitud":-65.0052144},
{"id":952,"fecha":"9/9/2017","importe":96.93,"latitud":48.2735736,"longitud":24.411971},
{"id":953,"fecha":"8/29/2017","importe":88.8,"latitud":4.9697573,"longitud":10.7013332},
{"id":954,"fecha":"7/24/2017","importe":95.97,"latitud":6.2582292,"longitud":6.3066585},
{"id":955,"fecha":"11/7/2017","importe":12.01,"latitud":24.326292,"longitud":109.428608},
{"id":956,"fecha":"10/19/2017","importe":64.45,"latitud":62.1964266,"longitud":17.2804413},
{"id":957,"fecha":"4/14/2017","importe":63.3,"latitud":43.53121,"longitud":1.402934},
{"id":958,"fecha":"9/3/2017","importe":98.62,"latitud":31.9852068,"longitud":119.5719162},
{"id":959,"fecha":"3/23/2017","importe":72.21,"latitud":41.8401694,"longitud":-8.8183159},
{"id":960,"fecha":"9/30/2017","importe":85.0,"latitud":35.588399,"longitud":99.982552},
{"id":961,"fecha":"10/13/2017","importe":75.39,"latitud":40.0058478,"longitud":-8.2125382},
{"id":962,"fecha":"3/31/2017","importe":85.94,"latitud":-23.5795137,"longitud":-47.9985512},
{"id":963,"fecha":"5/27/2017","importe":1.84,"latitud":7.3760605,"longitud":151.8843916},
{"id":964,"fecha":"12/22/2017","importe":58.9,"latitud":"-0.35294","longitud":"-79.66033"},
{"id":965,"fecha":"2/4/2017","importe":33.05,"latitud":49.6489809,"longitud":17.6517329},
{"id":966,"fecha":"12/5/2017","importe":93.79,"latitud":44.8307966,"longitud":37.5521227},
{"id":967,"fecha":"6/21/2017","importe":30.33,"latitud":34.0567271,"longitud":-118.364791},
{"id":968,"fecha":"11/9/2017","importe":22.88,"latitud":36.854929,"longitud":114.503339},
{"id":969,"fecha":"9/29/2017","importe":62.46,"latitud":19.6686032,"longitud":-72.1268032},
{"id":970,"fecha":"8/9/2017","importe":11.81,"latitud":-7.1281508,"longitud":-76.6506567},
{"id":971,"fecha":"6/9/2017","importe":39.98,"latitud":48.8610504,"longitud":2.3237084},
{"id":972,"fecha":"7/1/2017","importe":83.48,"latitud":63.1199384,"longitud":25.0747115},
{"id":973,"fecha":"6/6/2017","importe":52.93,"latitud":23.0404768,"longitud":-82.0107395},
{"id":974,"fecha":"9/28/2017","importe":54.32,"latitud":54.2207765,"longitud":18.9709477},
{"id":975,"fecha":"12/21/2017","importe":74.41,"latitud":48.1173081,"longitud":38.1648822},
{"id":976,"fecha":"9/14/2017","importe":92.22,"latitud":34.2869441,"longitud":-4.6605581},
{"id":977,"fecha":"12/15/2017","importe":48.87,"latitud":24.9350844,"longitud":121.7107613},
{"id":978,"fecha":"8/31/2017","importe":36.63,"latitud":11.2428856,"longitud":-73.4062342},
{"id":979,"fecha":"7/20/2017","importe":24.18,"latitud":29.000347,"longitud":101.507294},
{"id":980,"fecha":"10/24/2017","importe":52.19,"latitud":26.405715,"longitud":106.256412},
{"id":981,"fecha":"3/10/2017","importe":22.15,"latitud":17.2025656,"longitud":-62.588414},
{"id":982,"fecha":"2/20/2017","importe":84.78,"latitud":36.285792,"longitud":120.601428},
{"id":983,"fecha":"4/7/2017","importe":74.96,"latitud":25.1151759,"longitud":121.515018},
{"id":984,"fecha":"11/26/2017","importe":35.44,"latitud":14.5823299,"longitud":120.9946341},
{"id":985,"fecha":"1/22/2017","importe":96.76,"latitud":15.3097361,"longitud":120.8940375},
{"id":986,"fecha":"2/15/2017","importe":82.67,"latitud":39.9380845,"longitud":116.3152113},
{"id":987,"fecha":"3/14/2017","importe":30.66,"latitud":40.0506279,"longitud":-83.0683519},
{"id":988,"fecha":"2/12/2017","importe":69.22,"latitud":49.8861287,"longitud":20.608396},
{"id":989,"fecha":"1/17/2017","importe":28.1,"latitud":35.1742194,"longitud":33.205422},
{"id":990,"fecha":"7/27/2017","importe":23.78,"latitud":-7.6569277,"longitud":107.7073688},
{"id":991,"fecha":"1/27/2017","importe":14.62,"latitud":13.0748766,"longitud":123.7526021},
{"id":992,"fecha":"4/29/2017","importe":40.14,"latitud":8.3102946,"longitud":-81.2188355},
{"id":993,"fecha":"7/30/2017","importe":91.88,"latitud":43.42993,"longitud":83.26077},
{"id":994,"fecha":"1/18/2017","importe":16.82,"latitud":12.0310173,"longitud":102.2928163},
{"id":995,"fecha":"11/27/2017","importe":21.69,"latitud":40.6349415,"longitud":22.5004081},
{"id":996,"fecha":"8/3/2017","importe":31.7,"latitud":-26.791241,"longitud":-65.2151086},
{"id":997,"fecha":"5/23/2017","importe":41.74,"latitud":34.295348,"longitud":119.119278},
{"id":998,"fecha":"1/27/2017","importe":18.1,"latitud":-8.4500758,"longitud":118.7278177},
{"id":999,"fecha":"3/13/2017","importe":44.3,"latitud":-24.912902,"longitud":-65.640294},
{"id":1000,"fecha":"5/7/2017","importe":70.32,"latitud":35.7518326,"longitud":104.2861116}]